%YAML 1.1
%TAG !u! tag:unity3d.com,2011:
--- !u!29 &1
OcclusionCullingSettings:
  m_ObjectHideFlags: 0
  serializedVersion: 2
  m_OcclusionBakeSettings:
    smallestOccluder: 5
    smallestHole: 0.25
    backfaceThreshold: 100
  m_SceneGUID: 00000000000000000000000000000000
  m_OcclusionCullingData: {fileID: 0}
--- !u!104 &2
RenderSettings:
  m_ObjectHideFlags: 0
  serializedVersion: 9
  m_Fog: 0
  m_FogColor: {r: 0.5, g: 0.5, b: 0.5, a: 1}
  m_FogMode: 3
  m_FogDensity: 0.01
  m_LinearFogStart: 0
  m_LinearFogEnd: 300
  m_AmbientSkyColor: {r: 0.2, g: 0.2, b: 0.2, a: 1}
  m_AmbientEquatorColor: {r: 0.2, g: 0.2, b: 0.2, a: 1}
  m_AmbientGroundColor: {r: 0.2, g: 0.2, b: 0.2, a: 1}
  m_AmbientIntensity: 1
  m_AmbientMode: 3
  m_SubtractiveShadowColor: {r: 0.42, g: 0.478, b: 0.627, a: 1}
  m_SkyboxMaterial: {fileID: 10304, guid: 0000000000000000f000000000000000, type: 0}
  m_HaloStrength: 0.5
  m_FlareStrength: 1
  m_FlareFadeSpeed: 3
  m_HaloTexture: {fileID: 0}
  m_SpotCookie: {fileID: 10001, guid: 0000000000000000e000000000000000, type: 0}
  m_DefaultReflectionMode: 0
  m_DefaultReflectionResolution: 128
  m_ReflectionBounces: 1
  m_ReflectionIntensity: 1
  m_CustomReflection: {fileID: 0}
  m_Sun: {fileID: 0}
  m_IndirectSpecularColor: {r: 0.18028378, g: 0.22571412, b: 0.30692285, a: 1}
  m_UseRadianceAmbientProbe: 0
--- !u!157 &4
LightmapSettings:
  m_ObjectHideFlags: 0
  serializedVersion: 12
  m_GIWorkflowMode: 1
  m_GISettings:
    serializedVersion: 2
    m_BounceScale: 1
    m_IndirectOutputScale: 1
    m_AlbedoBoost: 1
    m_EnvironmentLightingMode: 0
    m_EnableBakedLightmaps: 1
    m_EnableRealtimeLightmaps: 0
  m_LightmapEditorSettings:
    serializedVersion: 12
    m_Resolution: 1
    m_BakeResolution: 2
    m_AtlasSize: 1024
    m_AO: 0
    m_AOMaxDistance: 1
    m_CompAOExponent: 0
    m_CompAOExponentDirect: 0
    m_ExtractAmbientOcclusion: 0
    m_Padding: 2
    m_LightmapParameters: {fileID: 0}
    m_LightmapsBakeMode: 1
    m_TextureCompression: 1
    m_FinalGather: 0
    m_FinalGatherFiltering: 1
    m_FinalGatherRayCount: 1024
    m_ReflectionCompression: 2
    m_MixedBakeMode: 1
    m_BakeBackend: 0
    m_PVRSampling: 1
    m_PVRDirectSampleCount: 32
    m_PVRSampleCount: 512
    m_PVRBounces: 2
    m_PVREnvironmentSampleCount: 512
    m_PVREnvironmentReferencePointCount: 2048
    m_PVRFilteringMode: 0
    m_PVRDenoiserTypeDirect: 0
    m_PVRDenoiserTypeIndirect: 0
    m_PVRDenoiserTypeAO: 0
    m_PVRFilterTypeDirect: 0
    m_PVRFilterTypeIndirect: 0
    m_PVRFilterTypeAO: 0
    m_PVREnvironmentMIS: 0
    m_PVRCulling: 1
    m_PVRFilteringGaussRadiusDirect: 1
    m_PVRFilteringGaussRadiusIndirect: 5
    m_PVRFilteringGaussRadiusAO: 2
    m_PVRFilteringAtrousPositionSigmaDirect: 0.5
    m_PVRFilteringAtrousPositionSigmaIndirect: 2
    m_PVRFilteringAtrousPositionSigmaAO: 1
    m_ExportTrainingData: 0
    m_TrainingDataDestination: TrainingData
    m_LightProbeSampleCountMultiplier: 4
  m_LightingDataAsset: {fileID: 0}
  m_LightingSettings: {fileID: 4890085278179872738, guid: acae7ca6ddc1dc046a62efefd3cb1cd6, type: 2}
--- !u!196 &5
NavMeshSettings:
  serializedVersion: 2
  m_ObjectHideFlags: 0
  m_BuildSettings:
    serializedVersion: 2
    agentTypeID: 0
    agentRadius: 0.5
    agentHeight: 2
    agentSlope: 45
    agentClimb: 0.4
    ledgeDropHeight: 0
    maxJumpAcrossDistance: 0
    minRegionArea: 2
    manualCellSize: 0
    cellSize: 0.16666666
    manualTileSize: 0
    tileSize: 256
    accuratePlacement: 0
    maxJobWorkers: 0
    preserveTilesOutsideBounds: 0
    debug:
      m_Flags: 0
  m_NavMeshData: {fileID: 0}
--- !u!1 &685148
GameObject:
  m_ObjectHideFlags: 0
  m_CorrespondingSourceObject: {fileID: 0}
  m_PrefabInstance: {fileID: 0}
  m_PrefabAsset: {fileID: 0}
  serializedVersion: 6
  m_Component:
  - component: {fileID: 685150}
  - component: {fileID: 685149}
  m_Layer: 0
  m_Name: Directional Light
  m_TagString: Untagged
  m_Icon: {fileID: 0}
  m_NavMeshLayer: 0
  m_StaticEditorFlags: 0
  m_IsActive: 1
--- !u!108 &685149
Light:
  m_ObjectHideFlags: 0
  m_CorrespondingSourceObject: {fileID: 0}
  m_PrefabInstance: {fileID: 0}
  m_PrefabAsset: {fileID: 0}
  m_GameObject: {fileID: 685148}
  m_Enabled: 1
  serializedVersion: 10
  m_Type: 1
  m_Shape: 0
  m_Color: {r: 1, g: 0.95686275, b: 0.8392157, a: 1}
  m_Intensity: 2
  m_Range: 10
  m_SpotAngle: 30
  m_InnerSpotAngle: 21.80208
  m_CookieSize: 10
  m_Shadows:
    m_Type: 2
    m_Resolution: -1
    m_CustomResolution: -1
    m_Strength: 1
    m_Bias: 0.05
    m_NormalBias: 0.4
    m_NearPlane: 0.2
    m_CullingMatrixOverride:
      e00: 1
      e01: 0
      e02: 0
      e03: 0
      e10: 0
      e11: 1
      e12: 0
      e13: 0
      e20: 0
      e21: 0
      e22: 1
      e23: 0
      e30: 0
      e31: 0
      e32: 0
      e33: 1
    m_UseCullingMatrixOverride: 0
  m_Cookie: {fileID: 0}
  m_DrawHalo: 0
  m_Flare: {fileID: 0}
  m_RenderMode: 0
  m_CullingMask:
    serializedVersion: 2
    m_Bits: 4294967295
  m_RenderingLayerMask: 1
  m_Lightmapping: 1
  m_LightShadowCasterMode: 0
  m_AreaSize: {x: 1, y: 1}
  m_BounceIntensity: 1
  m_ColorTemperature: 6570
  m_UseColorTemperature: 0
  m_BoundingSphereOverride: {x: 0, y: 0, z: 0, w: 0}
  m_UseBoundingSphereOverride: 0
  m_UseViewFrustumForShadowCasterCull: 1
  m_ShadowRadius: 0
  m_ShadowAngle: 0
--- !u!4 &685150
Transform:
  m_ObjectHideFlags: 0
  m_CorrespondingSourceObject: {fileID: 0}
  m_PrefabInstance: {fileID: 0}
  m_PrefabAsset: {fileID: 0}
  m_GameObject: {fileID: 685148}
  m_LocalRotation: {x: 0.40821797, y: -0.23456974, z: 0.10938168, w: 0.8754261}
  m_LocalPosition: {x: 0, y: 3, z: 0}
  m_LocalScale: {x: 1, y: 1, z: 1}
  m_Children: []
  m_Father: {fileID: 0}
  m_RootOrder: 2
  m_LocalEulerAnglesHint: {x: 0, y: 0, z: 0}
--- !u!1 &75568671
GameObject:
  m_ObjectHideFlags: 0
  m_CorrespondingSourceObject: {fileID: 0}
  m_PrefabInstance: {fileID: 0}
  m_PrefabAsset: {fileID: 0}
  serializedVersion: 6
  m_Component:
  - component: {fileID: 75568675}
  - component: {fileID: 75568674}
  - component: {fileID: 75568673}
  - component: {fileID: 75568672}
  m_Layer: 5
  m_Name: Image Scale
  m_TagString: Untagged
  m_Icon: {fileID: 0}
  m_NavMeshLayer: 0
  m_StaticEditorFlags: 0
  m_IsActive: 1
--- !u!114 &75568672
MonoBehaviour:
  m_ObjectHideFlags: 0
  m_CorrespondingSourceObject: {fileID: 0}
  m_PrefabInstance: {fileID: 0}
  m_PrefabAsset: {fileID: 0}
  m_GameObject: {fileID: 75568671}
  m_Enabled: 1
  m_EditorHideFlags: 0
  m_Script: {fileID: -1853575441, guid: e12027aef8e7440199d1da19d3226929, type: 3}
  m_Name: 
  m_EditorClassIdentifier: 
  m_CameraLeftEdge: 0
  m_CameraRightEdge: 0
  m_CameraTopEdge: 0
  m_CameraBottomEdge: 0
  m_CanvasWorldTopLeft: {x: 0, y: 0, z: 0}
  m_CanvasWorldTopCenter: {x: 0, y: 0, z: 0}
  m_CanvasWorldTopRight: {x: 0, y: 0, z: 0}
  m_CanvasWorldMiddleLeft: {x: 0, y: 0, z: 0}
  m_CanvasWorldMiddleCenter: {x: 0, y: 0, z: 0}
  m_CanvasWorldMiddleRight: {x: 0, y: 0, z: 0}
  m_CanvasWorldBottomLeft: {x: 0, y: 0, z: 0}
  m_CanvasWorldBottomCenter: {x: 0, y: 0, z: 0}
  m_CanvasWorldBottomRight: {x: 0, y: 0, z: 0}
  m_TotalBounds:
    m_Center: {x: 0, y: 0, z: 0}
    m_Extent: {x: 0, y: 0, z: 0}
  m_MoveOriginal: {x: 0, y: 0, z: 0}
  m_RotationOriginal: {x: 0, y: 0, z: 0, w: 0}
  m_ScaleOriginal: {x: 0, y: 0, z: 0}
  m_FadeOriginal: 0
  m_FadeOriginalTextOutline: 0
  m_FadeOriginalTextShadow: 0
  m_MoveIn:
    Enable: 0
    Began: 0
    Animating: 0
    Done: 0
    MoveFrom: 2
    BeginPos: {x: 0, y: 0, z: 0}
    EndPos: {x: 0, y: 0, z: 0}
    Position: {x: 0, y: 0, z: 0}
    EaseType: 27
    Time: 1
    Delay: 0
    Sounds:
      m_Begin: {fileID: 0}
      m_AfterDelay: {fileID: 0}
      m_End: {fileID: 0}
  m_RotationIn:
    Enable: 0
    Began: 0
    Animating: 0
    Done: 0
    BeginRotation: {x: 0, y: 0, z: 0}
    EndRotation: {x: 0, y: 0, z: 0}
    Rotation: {x: 0, y: 0, z: 0}
    EaseType: 27
    Time: 1
    Delay: 0
    Sounds:
      m_Begin: {fileID: 0}
      m_AfterDelay: {fileID: 0}
      m_End: {fileID: 0}
  m_ScaleIn:
    Enable: 1
    Began: 0
    Animating: 0
    Done: 0
    ScaleBegin: {x: 10, y: 10, z: 10}
    EaseType: 27
    Time: 5
    Delay: 0
    Sounds:
      m_Begin: {fileID: 0}
      m_AfterDelay: {fileID: 0}
      m_End: {fileID: 0}
  m_FadeIn:
    Enable: 0
    Began: 0
    Animating: 0
    Done: 0
    Fade: 0
    EaseType: 21
    Time: 1
    Delay: 0
    FadeChildren: 0
    Sounds:
      m_Begin: {fileID: 0}
      m_AfterDelay: {fileID: 0}
      m_End: {fileID: 0}
  m_ScaleLoop:
    Enable: 0
    Began: 0
    Animating: 0
    IsOverriding: 0
    IsOverridingDelayTimeCount: 0
    Done: 0
    m_ScaleLast: {x: 0, y: 0, z: 0}
    Min: {x: 1, y: 1, z: 1}
    Max: {x: 1.05, y: 1.05, z: 1.05}
    EaseType: 21
    Time: 1
    Delay: 0
    Sound:
      m_AudioClip: {fileID: 0}
      m_Loop: 0
      m_AudioSource: {fileID: 0}
  m_FadeLoop:
    Enable: 0
    Began: 0
    Animating: 0
    IsOverriding: 0
    IsOverridingDelayTimeCount: 0
    Done: 0
    m_FadeLast: 0
    Min: 0
    Max: 1
    EaseType: 21
    Time: 1
    Delay: 0
    FadeChildren: 0
    Sound:
      m_AudioClip: {fileID: 0}
      m_Loop: 0
      m_AudioSource: {fileID: 0}
  m_MoveOut:
    Enable: 0
    Began: 0
    Animating: 0
    Done: 0
    MoveTo: 2
    BeginPos: {x: 0, y: 0, z: 0}
    EndPos: {x: 0, y: 0, z: 0}
    Position: {x: 0, y: 0, z: 0}
    EaseType: 26
    Time: 1
    Delay: 0
    Sounds:
      m_Begin: {fileID: 0}
      m_AfterDelay: {fileID: 0}
      m_End: {fileID: 0}
  m_RotationOut:
    Enable: 0
    Began: 0
    Animating: 0
    Done: 0
    BeginRotation: {x: 0, y: 0, z: 0}
    EndRotation: {x: 0, y: 0, z: 0}
    Rotation: {x: 0, y: 0, z: 0}
    EaseType: 26
    Time: 1
    Delay: 0
    Sounds:
      m_Begin: {fileID: 0}
      m_AfterDelay: {fileID: 0}
      m_End: {fileID: 0}
  m_ScaleOut:
    Enable: 1
    Began: 0
    Animating: 0
    Done: 0
    ScaleBegin: {x: 1, y: 1, z: 1}
    ScaleEnd: {x: 0, y: 0, z: 0}
    EaseType: 26
    Time: 5
    Delay: 0
    Sounds:
      m_Begin: {fileID: 0}
      m_AfterDelay: {fileID: 0}
      m_End: {fileID: 0}
  m_FadeOut:
    Enable: 0
    Began: 0
    Animating: 0
    Done: 0
    Fade: 0
    EaseType: 21
    Time: 1
    Delay: 0
    FadeChildren: 0
    Sounds:
      m_Begin: {fileID: 0}
      m_AfterDelay: {fileID: 0}
      m_End: {fileID: 0}
  m_MoveVariable: 0
  m_RotationVariable: 0
  m_ScaleVariable: 0
  m_FadeVariable: 0
--- !u!114 &75568673
MonoBehaviour:
  m_ObjectHideFlags: 0
  m_CorrespondingSourceObject: {fileID: 0}
  m_PrefabInstance: {fileID: 0}
  m_PrefabAsset: {fileID: 0}
  m_GameObject: {fileID: 75568671}
  m_Enabled: 1
  m_EditorHideFlags: 0
  m_Script: {fileID: 11500000, guid: fe87c0e1cc204ed48ad3b37840f39efc, type: 3}
  m_Name: 
  m_EditorClassIdentifier: 
  m_Material: {fileID: 0}
  m_Color: {r: 1, g: 0, b: 0, a: 1}
  m_RaycastTarget: 1
  m_RaycastPadding: {x: 0, y: 0, z: 0, w: 0}
  m_Maskable: 1
  m_OnCullStateChanged:
    m_PersistentCalls:
      m_Calls: []
  m_Sprite: {fileID: 0}
  m_Type: 0
  m_PreserveAspect: 0
  m_FillCenter: 1
  m_FillMethod: 4
  m_FillAmount: 1
  m_FillClockwise: 1
  m_FillOrigin: 0
  m_UseSpriteMesh: 0
  m_PixelsPerUnitMultiplier: 1
--- !u!222 &75568674
CanvasRenderer:
  m_ObjectHideFlags: 0
  m_CorrespondingSourceObject: {fileID: 0}
  m_PrefabInstance: {fileID: 0}
  m_PrefabAsset: {fileID: 0}
  m_GameObject: {fileID: 75568671}
  m_CullTransparentMesh: 1
--- !u!224 &75568675
RectTransform:
  m_ObjectHideFlags: 0
  m_CorrespondingSourceObject: {fileID: 0}
  m_PrefabInstance: {fileID: 0}
  m_PrefabAsset: {fileID: 0}
  m_GameObject: {fileID: 75568671}
  m_LocalRotation: {x: 0, y: 0, z: 0, w: 1}
  m_LocalPosition: {x: 0, y: 0, z: 0}
  m_LocalScale: {x: 1, y: 1, z: 1}
  m_Children:
  - {fileID: 1244905944}
  m_Father: {fileID: 621921621}
  m_RootOrder: 5
  m_LocalEulerAnglesHint: {x: 0, y: 0, z: 0}
  m_AnchorMin: {x: 0.5, y: 0.5}
  m_AnchorMax: {x: 0.5, y: 0.5}
  m_AnchoredPosition: {x: 0, y: 300}
  m_SizeDelta: {x: 100, y: 100}
  m_Pivot: {x: 0.5, y: 0.5}
--- !u!1 &167593878
GameObject:
  m_ObjectHideFlags: 0
  m_CorrespondingSourceObject: {fileID: 0}
  m_PrefabInstance: {fileID: 0}
  m_PrefabAsset: {fileID: 0}
  serializedVersion: 6
  m_Component:
  - component: {fileID: 167593882}
  - component: {fileID: 167593881}
  - component: {fileID: 167593880}
  - component: {fileID: 167593879}
  m_Layer: 5
  m_Name: Image Rotate
  m_TagString: Untagged
  m_Icon: {fileID: 0}
  m_NavMeshLayer: 0
  m_StaticEditorFlags: 0
  m_IsActive: 1
--- !u!114 &167593879
MonoBehaviour:
  m_ObjectHideFlags: 0
  m_CorrespondingSourceObject: {fileID: 0}
  m_PrefabInstance: {fileID: 0}
  m_PrefabAsset: {fileID: 0}
  m_GameObject: {fileID: 167593878}
  m_Enabled: 1
  m_EditorHideFlags: 0
  m_Script: {fileID: -1853575441, guid: e12027aef8e7440199d1da19d3226929, type: 3}
  m_Name: 
  m_EditorClassIdentifier: 
  m_CameraLeftEdge: 0
  m_CameraRightEdge: 0
  m_CameraTopEdge: 0
  m_CameraBottomEdge: 0
  m_CanvasWorldTopLeft: {x: 0, y: 0, z: 0}
  m_CanvasWorldTopCenter: {x: 0, y: 0, z: 0}
  m_CanvasWorldTopRight: {x: 0, y: 0, z: 0}
  m_CanvasWorldMiddleLeft: {x: 0, y: 0, z: 0}
  m_CanvasWorldMiddleCenter: {x: 0, y: 0, z: 0}
  m_CanvasWorldMiddleRight: {x: 0, y: 0, z: 0}
  m_CanvasWorldBottomLeft: {x: 0, y: 0, z: 0}
  m_CanvasWorldBottomCenter: {x: 0, y: 0, z: 0}
  m_CanvasWorldBottomRight: {x: 0, y: 0, z: 0}
  m_TotalBounds:
    m_Center: {x: 0, y: 0, z: 0}
    m_Extent: {x: 0, y: 0, z: 0}
  m_MoveOriginal: {x: 0, y: 0, z: 0}
  m_RotationOriginal: {x: 0, y: 0, z: 0, w: 0}
  m_ScaleOriginal: {x: 0, y: 0, z: 0}
  m_FadeOriginal: 0
  m_FadeOriginalTextOutline: 0
  m_FadeOriginalTextShadow: 0
  m_MoveIn:
    Enable: 0
    Began: 0
    Animating: 0
    Done: 0
    MoveFrom: 5
    BeginPos: {x: 0, y: 0, z: 0}
    EndPos: {x: 0, y: 0, z: 0}
    Position: {x: 0, y: 0, z: 0}
    EaseType: 27
    Time: 1
    Delay: 0
    Sounds:
      m_Begin: {fileID: 0}
      m_AfterDelay: {fileID: 0}
      m_End: {fileID: 0}
  m_RotationIn:
    Enable: 1
    Began: 0
    Animating: 0
    Done: 0
    BeginRotation: {x: 0, y: 0, z: 0}
    EndRotation: {x: 0, y: 0, z: 0}
    Rotation: {x: 0, y: 0, z: 1080}
    EaseType: 27
    Time: 5
    Delay: 0
    Sounds:
      m_Begin: {fileID: 0}
      m_AfterDelay: {fileID: 0}
      m_End: {fileID: 0}
  m_ScaleIn:
    Enable: 0
    Began: 0
    Animating: 0
    Done: 0
    ScaleBegin: {x: 0, y: 0, z: 0}
    EaseType: 27
    Time: 1
    Delay: 0
    Sounds:
      m_Begin: {fileID: 0}
      m_AfterDelay: {fileID: 0}
      m_End: {fileID: 0}
  m_FadeIn:
    Enable: 0
    Began: 0
    Animating: 0
    Done: 0
    Fade: 0
    EaseType: 21
    Time: 1
    Delay: 0
    FadeChildren: 0
    Sounds:
      m_Begin: {fileID: 0}
      m_AfterDelay: {fileID: 0}
      m_End: {fileID: 0}
  m_ScaleLoop:
    Enable: 0
    Began: 0
    Animating: 0
    IsOverriding: 0
    IsOverridingDelayTimeCount: 0
    Done: 0
    m_ScaleLast: {x: 0, y: 0, z: 0}
    Min: {x: 1, y: 1, z: 1}
    Max: {x: 1.05, y: 1.05, z: 1.05}
    EaseType: 21
    Time: 1
    Delay: 0
    Sound:
      m_AudioClip: {fileID: 0}
      m_Loop: 0
      m_AudioSource: {fileID: 0}
  m_FadeLoop:
    Enable: 0
    Began: 0
    Animating: 0
    IsOverriding: 0
    IsOverridingDelayTimeCount: 0
    Done: 0
    m_FadeLast: 0
    Min: 0
    Max: 1
    EaseType: 21
    Time: 1
    Delay: 0
    FadeChildren: 0
    Sound:
      m_AudioClip: {fileID: 0}
      m_Loop: 0
      m_AudioSource: {fileID: 0}
  m_MoveOut:
    Enable: 0
    Began: 0
    Animating: 0
    Done: 0
    MoveTo: 2
    BeginPos: {x: 0, y: 0, z: 0}
    EndPos: {x: 0, y: 0, z: 0}
    Position: {x: 0, y: 0, z: 0}
    EaseType: 26
    Time: 1
    Delay: 0
    Sounds:
      m_Begin: {fileID: 0}
      m_AfterDelay: {fileID: 0}
      m_End: {fileID: 0}
  m_RotationOut:
    Enable: 1
    Began: 0
    Animating: 0
    Done: 0
    BeginRotation: {x: 0, y: 0, z: 0}
    EndRotation: {x: 0, y: 0, z: 0}
    Rotation: {x: 0, y: 0, z: 1080}
    EaseType: 26
    Time: 5
    Delay: 0
    Sounds:
      m_Begin: {fileID: 0}
      m_AfterDelay: {fileID: 0}
      m_End: {fileID: 0}
  m_ScaleOut:
    Enable: 0
    Began: 0
    Animating: 0
    Done: 0
    ScaleBegin: {x: 1, y: 1, z: 1}
    ScaleEnd: {x: 0, y: 0, z: 0}
    EaseType: 26
    Time: 1
    Delay: 0
    Sounds:
      m_Begin: {fileID: 0}
      m_AfterDelay: {fileID: 0}
      m_End: {fileID: 0}
  m_FadeOut:
    Enable: 0
    Began: 0
    Animating: 0
    Done: 0
    Fade: 0
    EaseType: 21
    Time: 1
    Delay: 0
    FadeChildren: 0
    Sounds:
      m_Begin: {fileID: 0}
      m_AfterDelay: {fileID: 0}
      m_End: {fileID: 0}
  m_MoveVariable: 0
  m_RotationVariable: 0
  m_ScaleVariable: 0
  m_FadeVariable: 0
--- !u!114 &167593880
MonoBehaviour:
  m_ObjectHideFlags: 0
  m_CorrespondingSourceObject: {fileID: 0}
  m_PrefabInstance: {fileID: 0}
  m_PrefabAsset: {fileID: 0}
  m_GameObject: {fileID: 167593878}
  m_Enabled: 1
  m_EditorHideFlags: 0
  m_Script: {fileID: 11500000, guid: fe87c0e1cc204ed48ad3b37840f39efc, type: 3}
  m_Name: 
  m_EditorClassIdentifier: 
  m_Material: {fileID: 0}
  m_Color: {r: 1, g: 1, b: 1, a: 1}
  m_RaycastTarget: 1
  m_RaycastPadding: {x: 0, y: 0, z: 0, w: 0}
  m_Maskable: 1
  m_OnCullStateChanged:
    m_PersistentCalls:
      m_Calls: []
  m_Sprite: {fileID: 0}
  m_Type: 0
  m_PreserveAspect: 0
  m_FillCenter: 1
  m_FillMethod: 4
  m_FillAmount: 1
  m_FillClockwise: 1
  m_FillOrigin: 0
  m_UseSpriteMesh: 0
  m_PixelsPerUnitMultiplier: 1
--- !u!222 &167593881
CanvasRenderer:
  m_ObjectHideFlags: 0
  m_CorrespondingSourceObject: {fileID: 0}
  m_PrefabInstance: {fileID: 0}
  m_PrefabAsset: {fileID: 0}
  m_GameObject: {fileID: 167593878}
  m_CullTransparentMesh: 1
--- !u!224 &167593882
RectTransform:
  m_ObjectHideFlags: 0
  m_CorrespondingSourceObject: {fileID: 0}
  m_PrefabInstance: {fileID: 0}
  m_PrefabAsset: {fileID: 0}
  m_GameObject: {fileID: 167593878}
  m_LocalRotation: {x: 0, y: 0, z: -0.0000009775241, w: -1}
  m_LocalPosition: {x: 0, y: 0, z: 0}
  m_LocalScale: {x: 1, y: 1, z: 1}
  m_Children:
  - {fileID: 679402449}
  m_Father: {fileID: 621921621}
  m_RootOrder: 4
  m_LocalEulerAnglesHint: {x: 0, y: 0, z: 0}
  m_AnchorMin: {x: 0.5, y: 0.5}
  m_AnchorMax: {x: 0.5, y: 0.5}
  m_AnchoredPosition: {x: 0, y: 0}
  m_SizeDelta: {x: 100, y: 100}
  m_Pivot: {x: 0.5, y: 0.5}
--- !u!1 &174607644
GameObject:
  m_ObjectHideFlags: 0
  m_CorrespondingSourceObject: {fileID: 0}
  m_PrefabInstance: {fileID: 0}
  m_PrefabAsset: {fileID: 0}
  serializedVersion: 6
  m_Component:
  - component: {fileID: 174607645}
  - component: {fileID: 174607648}
  - component: {fileID: 174607647}
  - component: {fileID: 174607646}
  m_Layer: 5
  m_Name: Image Move From Left
  m_TagString: Untagged
  m_Icon: {fileID: 0}
  m_NavMeshLayer: 0
  m_StaticEditorFlags: 0
  m_IsActive: 1
--- !u!224 &174607645
RectTransform:
  m_ObjectHideFlags: 0
  m_CorrespondingSourceObject: {fileID: 0}
  m_PrefabInstance: {fileID: 0}
  m_PrefabAsset: {fileID: 0}
  m_GameObject: {fileID: 174607644}
  m_LocalRotation: {x: 0, y: 0, z: 0, w: 1}
  m_LocalPosition: {x: 0, y: 0, z: 0}
  m_LocalScale: {x: 1, y: 1, z: 1}
  m_Children:
  - {fileID: 1231384129}
  m_Father: {fileID: 621921621}
  m_RootOrder: 1
  m_LocalEulerAnglesHint: {x: 0, y: 0, z: 0}
  m_AnchorMin: {x: 0.5, y: 0.5}
  m_AnchorMax: {x: 0.5, y: 0.5}
  m_AnchoredPosition: {x: -110, y: 0}
  m_SizeDelta: {x: 100, y: 100}
  m_Pivot: {x: 0.5, y: 0.5}
--- !u!114 &174607646
MonoBehaviour:
  m_ObjectHideFlags: 0
  m_CorrespondingSourceObject: {fileID: 0}
  m_PrefabInstance: {fileID: 0}
  m_PrefabAsset: {fileID: 0}
  m_GameObject: {fileID: 174607644}
  m_Enabled: 1
  m_EditorHideFlags: 0
  m_Script: {fileID: -1853575441, guid: e12027aef8e7440199d1da19d3226929, type: 3}
  m_Name: 
  m_EditorClassIdentifier: 
  m_CameraLeftEdge: 0
  m_CameraRightEdge: 0
  m_CameraTopEdge: 0
  m_CameraBottomEdge: 0
  m_CanvasWorldTopLeft: {x: 0, y: 0, z: 0}
  m_CanvasWorldTopCenter: {x: 0, y: 0, z: 0}
  m_CanvasWorldTopRight: {x: 0, y: 0, z: 0}
  m_CanvasWorldMiddleLeft: {x: 0, y: 0, z: 0}
  m_CanvasWorldMiddleCenter: {x: 0, y: 0, z: 0}
  m_CanvasWorldMiddleRight: {x: 0, y: 0, z: 0}
  m_CanvasWorldBottomLeft: {x: 0, y: 0, z: 0}
  m_CanvasWorldBottomCenter: {x: 0, y: 0, z: 0}
  m_CanvasWorldBottomRight: {x: 0, y: 0, z: 0}
  m_TotalBounds:
    m_Center: {x: 0, y: 0, z: 0}
    m_Extent: {x: 0, y: 0, z: 0}
  m_MoveOriginal: {x: 0, y: 0, z: 0}
  m_RotationOriginal: {x: 0, y: 0, z: 0, w: 0}
  m_ScaleOriginal: {x: 0, y: 0, z: 0}
  m_FadeOriginal: 0
  m_FadeOriginalTextOutline: 0
  m_FadeOriginalTextShadow: 0
  m_MoveIn:
    Enable: 1
    Began: 0
    Animating: 0
    Done: 0
    MoveFrom: 3
    BeginPos: {x: 0, y: 0, z: 0}
    EndPos: {x: 0, y: 0, z: 0}
    Position: {x: 0, y: 0, z: 0}
    EaseType: 27
    Time: 2
    Delay: 0.1
    Sounds:
      m_Begin: {fileID: 0}
      m_AfterDelay: {fileID: 0}
      m_End: {fileID: 0}
  m_RotationIn:
    Enable: 0
    Began: 0
    Animating: 0
    Done: 0
    BeginRotation: {x: 0, y: 0, z: 0}
    EndRotation: {x: 0, y: 0, z: 0}
    Rotation: {x: 0, y: 0, z: 0}
    EaseType: 27
    Time: 1
    Delay: 0
    Sounds:
      m_Begin: {fileID: 0}
      m_AfterDelay: {fileID: 0}
      m_End: {fileID: 0}
  m_ScaleIn:
    Enable: 0
    Began: 0
    Animating: 0
    Done: 0
    ScaleBegin: {x: 0, y: 0, z: 0}
    EaseType: 27
    Time: 1
    Delay: 0
    Sounds:
      m_Begin: {fileID: 0}
      m_AfterDelay: {fileID: 0}
      m_End: {fileID: 0}
  m_FadeIn:
    Enable: 0
    Began: 0
    Animating: 0
    Done: 0
    Fade: 0
    EaseType: 21
    Time: 1
    Delay: 0
    FadeChildren: 0
    Sounds:
      m_Begin: {fileID: 0}
      m_AfterDelay: {fileID: 0}
      m_End: {fileID: 0}
  m_ScaleLoop:
    Enable: 0
    Began: 0
    Animating: 0
    IsOverriding: 0
    IsOverridingDelayTimeCount: 0
    Done: 0
    m_ScaleLast: {x: 0, y: 0, z: 0}
    Min: {x: 1, y: 1, z: 1}
    Max: {x: 1.05, y: 1.05, z: 1.05}
    EaseType: 21
    Time: 1
    Delay: 0
    Sound:
      m_AudioClip: {fileID: 0}
      m_Loop: 0
      m_AudioSource: {fileID: 0}
  m_FadeLoop:
    Enable: 0
    Began: 0
    Animating: 0
    IsOverriding: 0
    IsOverridingDelayTimeCount: 0
    Done: 0
    m_FadeLast: 0
    Min: 0
    Max: 1
    EaseType: 21
    Time: 1
    Delay: 0
    FadeChildren: 0
    Sound:
      m_AudioClip: {fileID: 0}
      m_Loop: 0
      m_AudioSource: {fileID: 0}
  m_MoveOut:
    Enable: 1
    Began: 0
    Animating: 0
    Done: 0
    MoveTo: 3
    BeginPos: {x: 0, y: 0, z: 0}
    EndPos: {x: 0, y: 0, z: 0}
    Position: {x: 0, y: 0, z: 0}
    EaseType: 26
    Time: 2
    Delay: 0
    Sounds:
      m_Begin: {fileID: 0}
      m_AfterDelay: {fileID: 0}
      m_End: {fileID: 0}
  m_RotationOut:
    Enable: 0
    Began: 0
    Animating: 0
    Done: 0
    BeginRotation: {x: 0, y: 0, z: 0}
    EndRotation: {x: 0, y: 0, z: 0}
    Rotation: {x: 0, y: 0, z: 0}
    EaseType: 26
    Time: 1
    Delay: 0
    Sounds:
      m_Begin: {fileID: 0}
      m_AfterDelay: {fileID: 0}
      m_End: {fileID: 0}
  m_ScaleOut:
    Enable: 0
    Began: 0
    Animating: 0
    Done: 0
    ScaleBegin: {x: 1, y: 1, z: 1}
    ScaleEnd: {x: 0, y: 0, z: 0}
    EaseType: 26
    Time: 1
    Delay: 0
    Sounds:
      m_Begin: {fileID: 0}
      m_AfterDelay: {fileID: 0}
      m_End: {fileID: 0}
  m_FadeOut:
    Enable: 0
    Began: 0
    Animating: 0
    Done: 0
    Fade: 0
    EaseType: 21
    Time: 1
    Delay: 0
    FadeChildren: 0
    Sounds:
      m_Begin: {fileID: 0}
      m_AfterDelay: {fileID: 0}
      m_End: {fileID: 0}
  m_MoveVariable: 0
  m_RotationVariable: 0
  m_ScaleVariable: 0
  m_FadeVariable: 0
--- !u!114 &174607647
MonoBehaviour:
  m_ObjectHideFlags: 0
  m_CorrespondingSourceObject: {fileID: 0}
  m_PrefabInstance: {fileID: 0}
  m_PrefabAsset: {fileID: 0}
  m_GameObject: {fileID: 174607644}
  m_Enabled: 1
  m_EditorHideFlags: 0
  m_Script: {fileID: 11500000, guid: fe87c0e1cc204ed48ad3b37840f39efc, type: 3}
  m_Name: 
  m_EditorClassIdentifier: 
  m_Material: {fileID: 0}
  m_Color: {r: 0.07586241, g: 0, b: 1, a: 1}
  m_RaycastTarget: 1
  m_RaycastPadding: {x: 0, y: 0, z: 0, w: 0}
  m_Maskable: 1
  m_OnCullStateChanged:
    m_PersistentCalls:
      m_Calls: []
  m_Sprite: {fileID: 0}
  m_Type: 0
  m_PreserveAspect: 0
  m_FillCenter: 1
  m_FillMethod: 4
  m_FillAmount: 1
  m_FillClockwise: 1
  m_FillOrigin: 0
  m_UseSpriteMesh: 0
  m_PixelsPerUnitMultiplier: 1
--- !u!222 &174607648
CanvasRenderer:
  m_ObjectHideFlags: 0
  m_CorrespondingSourceObject: {fileID: 0}
  m_PrefabInstance: {fileID: 0}
  m_PrefabAsset: {fileID: 0}
  m_GameObject: {fileID: 174607644}
  m_CullTransparentMesh: 1
--- !u!1 &274250616
GameObject:
  m_ObjectHideFlags: 0
  m_CorrespondingSourceObject: {fileID: 0}
  m_PrefabInstance: {fileID: 0}
  m_PrefabAsset: {fileID: 0}
  serializedVersion: 6
  m_Component:
  - component: {fileID: 274250621}
  - component: {fileID: 274250620}
  - component: {fileID: 274250618}
  - component: {fileID: 274250617}
  m_Layer: 0
  m_Name: Main Camera
  m_TagString: MainCamera
  m_Icon: {fileID: 0}
  m_NavMeshLayer: 0
  m_StaticEditorFlags: 0
  m_IsActive: 1
--- !u!81 &274250617
AudioListener:
  m_ObjectHideFlags: 0
  m_CorrespondingSourceObject: {fileID: 0}
  m_PrefabInstance: {fileID: 0}
  m_PrefabAsset: {fileID: 0}
  m_GameObject: {fileID: 274250616}
  m_Enabled: 1
--- !u!124 &274250618
Behaviour:
  m_ObjectHideFlags: 0
  m_CorrespondingSourceObject: {fileID: 0}
  m_PrefabInstance: {fileID: 0}
  m_PrefabAsset: {fileID: 0}
  m_GameObject: {fileID: 274250616}
  m_Enabled: 1
--- !u!20 &274250620
Camera:
  m_ObjectHideFlags: 0
  m_CorrespondingSourceObject: {fileID: 0}
  m_PrefabInstance: {fileID: 0}
  m_PrefabAsset: {fileID: 0}
  m_GameObject: {fileID: 274250616}
  m_Enabled: 1
  serializedVersion: 2
  m_ClearFlags: 1
  m_BackGroundColor: {r: 0.19215687, g: 0.3019608, b: 0.4745098, a: 0.019607844}
  m_projectionMatrixMode: 1
  m_GateFitMode: 2
  m_FOVAxisMode: 0
  m_SensorSize: {x: 36, y: 24}
  m_LensShift: {x: 0, y: 0}
  m_FocalLength: 50
  m_NormalizedViewPortRect:
    serializedVersion: 2
    x: 0
    y: 0
    width: 1
    height: 1
  near clip plane: 0.3
  far clip plane: 1000
  field of view: 60
  orthographic: 1
  orthographic size: 5
  m_Depth: -1
  m_CullingMask:
    serializedVersion: 2
    m_Bits: 4294967295
  m_RenderingPath: -1
  m_TargetTexture: {fileID: 0}
  m_TargetDisplay: 0
  m_TargetEye: 3
  m_HDR: 0
  m_AllowMSAA: 1
  m_AllowDynamicResolution: 0
  m_ForceIntoRT: 0
  m_OcclusionCulling: 1
  m_StereoConvergence: 10
  m_StereoSeparation: 0.022
--- !u!4 &274250621
Transform:
  m_ObjectHideFlags: 0
  m_CorrespondingSourceObject: {fileID: 0}
  m_PrefabInstance: {fileID: 0}
  m_PrefabAsset: {fileID: 0}
  m_GameObject: {fileID: 274250616}
  m_LocalRotation: {x: 0, y: 0, z: 0, w: 1}
  m_LocalPosition: {x: 0, y: 0, z: -10}
  m_LocalScale: {x: 1, y: 1, z: 1}
  m_Children: []
  m_Father: {fileID: 0}
  m_RootOrder: 1
  m_LocalEulerAnglesHint: {x: 0, y: 0, z: 0}
--- !u!1 &299857985
GameObject:
  m_ObjectHideFlags: 0
  m_CorrespondingSourceObject: {fileID: 0}
  m_PrefabInstance: {fileID: 0}
  m_PrefabAsset: {fileID: 0}
  serializedVersion: 6
  m_Component:
  - component: {fileID: 299857986}
  - component: {fileID: 299857988}
  - component: {fileID: 299857987}
  m_Layer: 5
  m_Name: Scale Loop
  m_TagString: Untagged
  m_Icon: {fileID: 0}
  m_NavMeshLayer: 0
  m_StaticEditorFlags: 0
  m_IsActive: 1
--- !u!224 &299857986
RectTransform:
  m_ObjectHideFlags: 0
  m_CorrespondingSourceObject: {fileID: 0}
  m_PrefabInstance: {fileID: 0}
  m_PrefabAsset: {fileID: 0}
  m_GameObject: {fileID: 299857985}
  m_LocalRotation: {x: 0, y: 0, z: 0, w: 1}
  m_LocalPosition: {x: 0, y: 0, z: 0}
  m_LocalScale: {x: 1, y: 1, z: 1}
  m_Children: []
  m_Father: {fileID: 2043423266}
  m_RootOrder: 0
  m_LocalEulerAnglesHint: {x: 0, y: 0, z: 0}
  m_AnchorMin: {x: 0.5, y: 0.5}
  m_AnchorMax: {x: 0.5, y: 0.5}
  m_AnchoredPosition: {x: 0, y: 0}
  m_SizeDelta: {x: 100, y: 100}
  m_Pivot: {x: 0.5, y: 0.5}
--- !u!114 &299857987
MonoBehaviour:
  m_ObjectHideFlags: 0
  m_CorrespondingSourceObject: {fileID: 0}
  m_PrefabInstance: {fileID: 0}
  m_PrefabAsset: {fileID: 0}
  m_GameObject: {fileID: 299857985}
  m_Enabled: 1
  m_EditorHideFlags: 0
  m_Script: {fileID: 11500000, guid: 5f7201a12d95ffc409449d95f23cf332, type: 3}
  m_Name: 
  m_EditorClassIdentifier: 
  m_Material: {fileID: 0}
  m_Color: {r: 0.19607843, g: 0.19607843, b: 0.19607843, a: 1}
  m_RaycastTarget: 1
  m_RaycastPadding: {x: 0, y: 0, z: 0, w: 0}
  m_Maskable: 1
  m_OnCullStateChanged:
    m_PersistentCalls:
      m_Calls: []
  m_FontData:
    m_Font: {fileID: 10102, guid: 0000000000000000e000000000000000, type: 0}
    m_FontSize: 28
    m_FontStyle: 0
    m_BestFit: 0
    m_MinSize: 10
    m_MaxSize: 40
    m_Alignment: 4
    m_AlignByGeometry: 0
    m_RichText: 1
    m_HorizontalOverflow: 0
    m_VerticalOverflow: 0
    m_LineSpacing: 1
  m_Text: Scale Loop
--- !u!222 &299857988
CanvasRenderer:
  m_ObjectHideFlags: 0
  m_CorrespondingSourceObject: {fileID: 0}
  m_PrefabInstance: {fileID: 0}
  m_PrefabAsset: {fileID: 0}
  m_GameObject: {fileID: 299857985}
  m_CullTransparentMesh: 1
--- !u!1 &340599578
GameObject:
  m_ObjectHideFlags: 0
  m_CorrespondingSourceObject: {fileID: 0}
  m_PrefabInstance: {fileID: 0}
  m_PrefabAsset: {fileID: 0}
  serializedVersion: 6
  m_Component:
  - component: {fileID: 340599579}
  - component: {fileID: 340599581}
  - component: {fileID: 340599580}
  m_Layer: 5
  m_Name: Move from bottom
  m_TagString: Untagged
  m_Icon: {fileID: 0}
  m_NavMeshLayer: 0
  m_StaticEditorFlags: 0
  m_IsActive: 1
--- !u!224 &340599579
RectTransform:
  m_ObjectHideFlags: 0
  m_CorrespondingSourceObject: {fileID: 0}
  m_PrefabInstance: {fileID: 0}
  m_PrefabAsset: {fileID: 0}
  m_GameObject: {fileID: 340599578}
  m_LocalRotation: {x: 0, y: 0, z: 0, w: 1}
  m_LocalPosition: {x: 0, y: 0, z: 0}
  m_LocalScale: {x: 1, y: 1, z: 1}
  m_Children: []
  m_Father: {fileID: 1808691624}
  m_RootOrder: 0
  m_LocalEulerAnglesHint: {x: 0, y: 0, z: 0}
  m_AnchorMin: {x: 0.5, y: 0.5}
  m_AnchorMax: {x: 0.5, y: 0.5}
  m_AnchoredPosition: {x: 0, y: 0}
  m_SizeDelta: {x: 100, y: 100}
  m_Pivot: {x: 0.5, y: 0.5}
--- !u!114 &340599580
MonoBehaviour:
  m_ObjectHideFlags: 0
  m_CorrespondingSourceObject: {fileID: 0}
  m_PrefabInstance: {fileID: 0}
  m_PrefabAsset: {fileID: 0}
  m_GameObject: {fileID: 340599578}
  m_Enabled: 1
  m_EditorHideFlags: 0
  m_Script: {fileID: 11500000, guid: 5f7201a12d95ffc409449d95f23cf332, type: 3}
  m_Name: 
  m_EditorClassIdentifier: 
  m_Material: {fileID: 0}
  m_Color: {r: 0.19607843, g: 0.19607843, b: 0.19607843, a: 1}
  m_RaycastTarget: 1
  m_RaycastPadding: {x: 0, y: 0, z: 0, w: 0}
  m_Maskable: 1
  m_OnCullStateChanged:
    m_PersistentCalls:
      m_Calls: []
  m_FontData:
    m_Font: {fileID: 10102, guid: 0000000000000000e000000000000000, type: 0}
    m_FontSize: 28
    m_FontStyle: 0
    m_BestFit: 0
    m_MinSize: 10
    m_MaxSize: 40
    m_Alignment: 4
    m_AlignByGeometry: 0
    m_RichText: 1
    m_HorizontalOverflow: 0
    m_VerticalOverflow: 0
    m_LineSpacing: 1
  m_Text: MoveIn Bottom
--- !u!222 &340599581
CanvasRenderer:
  m_ObjectHideFlags: 0
  m_CorrespondingSourceObject: {fileID: 0}
  m_PrefabInstance: {fileID: 0}
  m_PrefabAsset: {fileID: 0}
  m_GameObject: {fileID: 340599578}
  m_CullTransparentMesh: 1
--- !u!1 &342916245
GameObject:
  m_ObjectHideFlags: 0
  m_CorrespondingSourceObject: {fileID: 0}
  m_PrefabInstance: {fileID: 0}
  m_PrefabAsset: {fileID: 0}
  serializedVersion: 6
  m_Component:
  - component: {fileID: 342916246}
  - component: {fileID: 342916248}
  - component: {fileID: 342916247}
  m_Layer: 5
  m_Name: Move from right
  m_TagString: Untagged
  m_Icon: {fileID: 0}
  m_NavMeshLayer: 0
  m_StaticEditorFlags: 0
  m_IsActive: 1
--- !u!224 &342916246
RectTransform:
  m_ObjectHideFlags: 0
  m_CorrespondingSourceObject: {fileID: 0}
  m_PrefabInstance: {fileID: 0}
  m_PrefabAsset: {fileID: 0}
  m_GameObject: {fileID: 342916245}
  m_LocalRotation: {x: 0, y: 0, z: 0, w: 1}
  m_LocalPosition: {x: 0, y: 0, z: 0}
  m_LocalScale: {x: 1, y: 1, z: 1}
  m_Children: []
  m_Father: {fileID: 1748170636}
  m_RootOrder: 0
  m_LocalEulerAnglesHint: {x: 0, y: 0, z: 0}
  m_AnchorMin: {x: 0.5, y: 0.5}
  m_AnchorMax: {x: 0.5, y: 0.5}
  m_AnchoredPosition: {x: 0, y: 0}
  m_SizeDelta: {x: 100, y: 100}
  m_Pivot: {x: 0.5, y: 0.5}
--- !u!114 &342916247
MonoBehaviour:
  m_ObjectHideFlags: 0
  m_CorrespondingSourceObject: {fileID: 0}
  m_PrefabInstance: {fileID: 0}
  m_PrefabAsset: {fileID: 0}
  m_GameObject: {fileID: 342916245}
  m_Enabled: 1
  m_EditorHideFlags: 0
  m_Script: {fileID: 11500000, guid: 5f7201a12d95ffc409449d95f23cf332, type: 3}
  m_Name: 
  m_EditorClassIdentifier: 
  m_Material: {fileID: 0}
  m_Color: {r: 0.19607843, g: 0.19607843, b: 0.19607843, a: 1}
  m_RaycastTarget: 1
  m_RaycastPadding: {x: 0, y: 0, z: 0, w: 0}
  m_Maskable: 1
  m_OnCullStateChanged:
    m_PersistentCalls:
      m_Calls: []
  m_FontData:
    m_Font: {fileID: 10102, guid: 0000000000000000e000000000000000, type: 0}
    m_FontSize: 28
    m_FontStyle: 0
    m_BestFit: 0
    m_MinSize: 10
    m_MaxSize: 40
    m_Alignment: 4
    m_AlignByGeometry: 0
    m_RichText: 1
    m_HorizontalOverflow: 0
    m_VerticalOverflow: 0
    m_LineSpacing: 1
  m_Text: MoveIn Right
--- !u!222 &342916248
CanvasRenderer:
  m_ObjectHideFlags: 0
  m_CorrespondingSourceObject: {fileID: 0}
  m_PrefabInstance: {fileID: 0}
  m_PrefabAsset: {fileID: 0}
  m_GameObject: {fileID: 342916245}
  m_CullTransparentMesh: 1
--- !u!1 &621921617
GameObject:
  m_ObjectHideFlags: 0
  m_CorrespondingSourceObject: {fileID: 0}
  m_PrefabInstance: {fileID: 0}
  m_PrefabAsset: {fileID: 0}
  serializedVersion: 6
  m_Component:
  - component: {fileID: 621921621}
  - component: {fileID: 621921620}
  - component: {fileID: 621921619}
  - component: {fileID: 621921618}
  m_Layer: 5
  m_Name: Canvas
  m_TagString: Untagged
  m_Icon: {fileID: 0}
  m_NavMeshLayer: 0
  m_StaticEditorFlags: 0
  m_IsActive: 1
--- !u!114 &621921618
MonoBehaviour:
  m_ObjectHideFlags: 0
  m_CorrespondingSourceObject: {fileID: 0}
  m_PrefabInstance: {fileID: 0}
  m_PrefabAsset: {fileID: 0}
  m_GameObject: {fileID: 621921617}
  m_Enabled: 1
  m_EditorHideFlags: 0
  m_Script: {fileID: 11500000, guid: dc42784cf147c0c48a680349fa168899, type: 3}
  m_Name: 
  m_EditorClassIdentifier: 
  m_IgnoreReversedGraphics: 1
  m_BlockingObjects: 0
  m_BlockingMask:
    serializedVersion: 2
    m_Bits: 4294967295
--- !u!114 &621921619
MonoBehaviour:
  m_ObjectHideFlags: 0
  m_CorrespondingSourceObject: {fileID: 0}
  m_PrefabInstance: {fileID: 0}
  m_PrefabAsset: {fileID: 0}
  m_GameObject: {fileID: 621921617}
  m_Enabled: 1
  m_EditorHideFlags: 0
  m_Script: {fileID: 11500000, guid: 0cd44c1031e13a943bb63640046fad76, type: 3}
  m_Name: 
  m_EditorClassIdentifier: 
  m_UiScaleMode: 1
  m_ReferencePixelsPerUnit: 100
  m_ScaleFactor: 1
  m_ReferenceResolution: {x: 540, y: 960}
  m_ScreenMatchMode: 0
  m_MatchWidthOrHeight: 1
  m_PhysicalUnit: 3
  m_FallbackScreenDPI: 96
  m_DefaultSpriteDPI: 96
  m_DynamicPixelsPerUnit: 1
  m_PresetInfoIsWorld: 0
--- !u!223 &621921620
Canvas:
  m_ObjectHideFlags: 0
  m_CorrespondingSourceObject: {fileID: 0}
  m_PrefabInstance: {fileID: 0}
  m_PrefabAsset: {fileID: 0}
  m_GameObject: {fileID: 621921617}
  m_Enabled: 1
  serializedVersion: 3
  m_RenderMode: 0
  m_Camera: {fileID: 274250620}
  m_PlaneDistance: 100
  m_PixelPerfect: 0
  m_ReceivesEvents: 1
  m_OverrideSorting: 0
  m_OverridePixelPerfect: 0
  m_SortingBucketNormalizedSize: 0
  m_AdditionalShaderChannelsFlag: 25
  m_SortingLayerID: 0
  m_SortingOrder: 0
  m_TargetDisplay: 0
--- !u!224 &621921621
RectTransform:
  m_ObjectHideFlags: 0
  m_CorrespondingSourceObject: {fileID: 0}
  m_PrefabInstance: {fileID: 0}
  m_PrefabAsset: {fileID: 0}
  m_GameObject: {fileID: 621921617}
  m_LocalRotation: {x: 0, y: 0, z: 0, w: 1}
  m_LocalPosition: {x: 0, y: 0, z: 0}
  m_LocalScale: {x: 0, y: 0, z: 0}
  m_Children:
  - {fileID: 647763006}
  - {fileID: 174607645}
  - {fileID: 1748170636}
  - {fileID: 1808691624}
  - {fileID: 167593882}
  - {fileID: 75568675}
  - {fileID: 1860561880}
  - {fileID: 2043423266}
  - {fileID: 917317771}
  - {fileID: 1300863228}
  m_Father: {fileID: 0}
  m_RootOrder: 3
  m_LocalEulerAnglesHint: {x: 0, y: 0, z: 0}
  m_AnchorMin: {x: 0, y: 0}
  m_AnchorMax: {x: 0, y: 0}
  m_AnchoredPosition: {x: 0, y: 0}
  m_SizeDelta: {x: 0, y: 0}
  m_Pivot: {x: 0, y: 0}
--- !u!1 &647763005
GameObject:
  m_ObjectHideFlags: 0
  m_CorrespondingSourceObject: {fileID: 0}
  m_PrefabInstance: {fileID: 0}
  m_PrefabAsset: {fileID: 0}
  serializedVersion: 6
  m_Component:
  - component: {fileID: 647763006}
  - component: {fileID: 647763009}
  - component: {fileID: 647763008}
  - component: {fileID: 647763007}
  m_Layer: 5
  m_Name: Image Move From Top
  m_TagString: Untagged
  m_Icon: {fileID: 0}
  m_NavMeshLayer: 0
  m_StaticEditorFlags: 0
  m_IsActive: 1
--- !u!224 &647763006
RectTransform:
  m_ObjectHideFlags: 0
  m_CorrespondingSourceObject: {fileID: 0}
  m_PrefabInstance: {fileID: 0}
  m_PrefabAsset: {fileID: 0}
  m_GameObject: {fileID: 647763005}
  m_LocalRotation: {x: 0, y: 0, z: 0, w: 1}
  m_LocalPosition: {x: 0, y: 0, z: 0}
  m_LocalScale: {x: 1, y: 1, z: 1}
  m_Children:
  - {fileID: 1514877899}
  m_Father: {fileID: 621921621}
  m_RootOrder: 0
  m_LocalEulerAnglesHint: {x: 0, y: 0, z: 0}
  m_AnchorMin: {x: 0.5, y: 0.5}
  m_AnchorMax: {x: 0.5, y: 0.5}
  m_AnchoredPosition: {x: 0, y: 110}
  m_SizeDelta: {x: 100, y: 100}
  m_Pivot: {x: 0.5, y: 0.5}
--- !u!114 &647763007
MonoBehaviour:
  m_ObjectHideFlags: 0
  m_CorrespondingSourceObject: {fileID: 0}
  m_PrefabInstance: {fileID: 0}
  m_PrefabAsset: {fileID: 0}
  m_GameObject: {fileID: 647763005}
  m_Enabled: 1
  m_EditorHideFlags: 0
  m_Script: {fileID: -1853575441, guid: e12027aef8e7440199d1da19d3226929, type: 3}
  m_Name: 
  m_EditorClassIdentifier: 
  m_CameraLeftEdge: 0
  m_CameraRightEdge: 0
  m_CameraTopEdge: 0
  m_CameraBottomEdge: 0
  m_CanvasWorldTopLeft: {x: 0, y: 0, z: 0}
  m_CanvasWorldTopCenter: {x: 0, y: 0, z: 0}
  m_CanvasWorldTopRight: {x: 0, y: 0, z: 0}
  m_CanvasWorldMiddleLeft: {x: 0, y: 0, z: 0}
  m_CanvasWorldMiddleCenter: {x: 0, y: 0, z: 0}
  m_CanvasWorldMiddleRight: {x: 0, y: 0, z: 0}
  m_CanvasWorldBottomLeft: {x: 0, y: 0, z: 0}
  m_CanvasWorldBottomCenter: {x: 0, y: 0, z: 0}
  m_CanvasWorldBottomRight: {x: 0, y: 0, z: 0}
  m_TotalBounds:
    m_Center: {x: 0, y: 0, z: 0}
    m_Extent: {x: 0, y: 0, z: 0}
  m_MoveOriginal: {x: 0, y: 0, z: 0}
  m_RotationOriginal: {x: 0, y: 0, z: 0, w: 0}
  m_ScaleOriginal: {x: 0, y: 0, z: 0}
  m_FadeOriginal: 0
  m_FadeOriginalTextOutline: 0
  m_FadeOriginalTextShadow: 0
  m_MoveIn:
    Enable: 1
    Began: 0
    Animating: 0
    Done: 0
    MoveFrom: 2
    BeginPos: {x: 0, y: 0, z: 0}
    EndPos: {x: 0, y: 0, z: 0}
    Position: {x: 0, y: 0, z: 0}
    EaseType: 27
    Time: 2
    Delay: 0.1
    Sounds:
      m_Begin: {fileID: 0}
      m_AfterDelay: {fileID: 0}
      m_End: {fileID: 0}
  m_RotationIn:
    Enable: 0
    Began: 0
    Animating: 0
    Done: 0
    BeginRotation: {x: 0, y: 0, z: 0}
    EndRotation: {x: 0, y: 0, z: 0}
    Rotation: {x: 0, y: 0, z: 0}
    EaseType: 27
    Time: 1
    Delay: 0
    Sounds:
      m_Begin: {fileID: 0}
      m_AfterDelay: {fileID: 0}
      m_End: {fileID: 0}
  m_ScaleIn:
    Enable: 0
    Began: 0
    Animating: 0
    Done: 0
    ScaleBegin: {x: 0, y: 0, z: 0}
    EaseType: 27
    Time: 1
    Delay: 0
    Sounds:
      m_Begin: {fileID: 0}
      m_AfterDelay: {fileID: 0}
      m_End: {fileID: 0}
  m_FadeIn:
    Enable: 0
    Began: 0
    Animating: 0
    Done: 0
    Fade: 0
    EaseType: 21
    Time: 1
    Delay: 0
    FadeChildren: 0
    Sounds:
      m_Begin: {fileID: 0}
      m_AfterDelay: {fileID: 0}
      m_End: {fileID: 0}
  m_ScaleLoop:
    Enable: 0
    Began: 0
    Animating: 0
    IsOverriding: 0
    IsOverridingDelayTimeCount: 0
    Done: 0
    m_ScaleLast: {x: 0, y: 0, z: 0}
    Min: {x: 1, y: 1, z: 1}
    Max: {x: 1.05, y: 1.05, z: 1.05}
    EaseType: 21
    Time: 1
    Delay: 0
    Sound:
      m_AudioClip: {fileID: 0}
      m_Loop: 0
      m_AudioSource: {fileID: 0}
  m_FadeLoop:
    Enable: 0
    Began: 0
    Animating: 0
    IsOverriding: 0
    IsOverridingDelayTimeCount: 0
    Done: 0
    m_FadeLast: 0
    Min: 0
    Max: 1
    EaseType: 21
    Time: 1
    Delay: 0
    FadeChildren: 0
    Sound:
      m_AudioClip: {fileID: 0}
      m_Loop: 0
      m_AudioSource: {fileID: 0}
  m_MoveOut:
    Enable: 1
    Began: 0
    Animating: 0
    Done: 0
    MoveTo: 2
    BeginPos: {x: 0, y: 0, z: 0}
    EndPos: {x: 0, y: 0, z: 0}
    Position: {x: 0, y: 0, z: 0}
    EaseType: 26
    Time: 2
    Delay: 0
    Sounds:
      m_Begin: {fileID: 0}
      m_AfterDelay: {fileID: 0}
      m_End: {fileID: 0}
  m_RotationOut:
    Enable: 0
    Began: 0
    Animating: 0
    Done: 0
    BeginRotation: {x: 0, y: 0, z: 0}
    EndRotation: {x: 0, y: 0, z: 0}
    Rotation: {x: 0, y: 0, z: 0}
    EaseType: 26
    Time: 1
    Delay: 0
    Sounds:
      m_Begin: {fileID: 0}
      m_AfterDelay: {fileID: 0}
      m_End: {fileID: 0}
  m_ScaleOut:
    Enable: 0
    Began: 0
    Animating: 0
    Done: 0
    ScaleBegin: {x: 1, y: 1, z: 1}
    ScaleEnd: {x: 0, y: 0, z: 0}
    EaseType: 26
    Time: 1
    Delay: 0
    Sounds:
      m_Begin: {fileID: 0}
      m_AfterDelay: {fileID: 0}
      m_End: {fileID: 0}
  m_FadeOut:
    Enable: 0
    Began: 0
    Animating: 0
    Done: 0
    Fade: 0
    EaseType: 21
    Time: 1
    Delay: 0
    FadeChildren: 0
    Sounds:
      m_Begin: {fileID: 0}
      m_AfterDelay: {fileID: 0}
      m_End: {fileID: 0}
  m_MoveVariable: 0
  m_RotationVariable: 0
  m_ScaleVariable: 0
  m_FadeVariable: 0
--- !u!114 &647763008
MonoBehaviour:
  m_ObjectHideFlags: 0
  m_CorrespondingSourceObject: {fileID: 0}
  m_PrefabInstance: {fileID: 0}
  m_PrefabAsset: {fileID: 0}
  m_GameObject: {fileID: 647763005}
  m_Enabled: 1
  m_EditorHideFlags: 0
  m_Script: {fileID: 11500000, guid: fe87c0e1cc204ed48ad3b37840f39efc, type: 3}
  m_Name: 
  m_EditorClassIdentifier: 
  m_Material: {fileID: 0}
  m_Color: {r: 1, g: 0, b: 0, a: 1}
  m_RaycastTarget: 1
  m_RaycastPadding: {x: 0, y: 0, z: 0, w: 0}
  m_Maskable: 1
  m_OnCullStateChanged:
    m_PersistentCalls:
      m_Calls: []
  m_Sprite: {fileID: 0}
  m_Type: 0
  m_PreserveAspect: 0
  m_FillCenter: 1
  m_FillMethod: 4
  m_FillAmount: 1
  m_FillClockwise: 1
  m_FillOrigin: 0
  m_UseSpriteMesh: 0
  m_PixelsPerUnitMultiplier: 1
--- !u!222 &647763009
CanvasRenderer:
  m_ObjectHideFlags: 0
  m_CorrespondingSourceObject: {fileID: 0}
  m_PrefabInstance: {fileID: 0}
  m_PrefabAsset: {fileID: 0}
  m_GameObject: {fileID: 647763005}
  m_CullTransparentMesh: 1
--- !u!1 &679402448
GameObject:
  m_ObjectHideFlags: 0
  m_CorrespondingSourceObject: {fileID: 0}
  m_PrefabInstance: {fileID: 0}
  m_PrefabAsset: {fileID: 0}
  serializedVersion: 6
  m_Component:
  - component: {fileID: 679402449}
  - component: {fileID: 679402451}
  - component: {fileID: 679402450}
  m_Layer: 5
  m_Name: Rotate In Out
  m_TagString: Untagged
  m_Icon: {fileID: 0}
  m_NavMeshLayer: 0
  m_StaticEditorFlags: 0
  m_IsActive: 1
--- !u!224 &679402449
RectTransform:
  m_ObjectHideFlags: 0
  m_CorrespondingSourceObject: {fileID: 0}
  m_PrefabInstance: {fileID: 0}
  m_PrefabAsset: {fileID: 0}
  m_GameObject: {fileID: 679402448}
  m_LocalRotation: {x: 0, y: 0, z: 0, w: 1}
  m_LocalPosition: {x: 0, y: 0, z: 0}
  m_LocalScale: {x: 1, y: 1, z: 1}
  m_Children: []
  m_Father: {fileID: 167593882}
  m_RootOrder: 0
  m_LocalEulerAnglesHint: {x: 0, y: 0, z: 0}
  m_AnchorMin: {x: 0.5, y: 0.5}
  m_AnchorMax: {x: 0.5, y: 0.5}
  m_AnchoredPosition: {x: 0, y: 0}
  m_SizeDelta: {x: 100, y: 100}
  m_Pivot: {x: 0.5, y: 0.5}
--- !u!114 &679402450
MonoBehaviour:
  m_ObjectHideFlags: 0
  m_CorrespondingSourceObject: {fileID: 0}
  m_PrefabInstance: {fileID: 0}
  m_PrefabAsset: {fileID: 0}
  m_GameObject: {fileID: 679402448}
  m_Enabled: 1
  m_EditorHideFlags: 0
  m_Script: {fileID: 11500000, guid: 5f7201a12d95ffc409449d95f23cf332, type: 3}
  m_Name: 
  m_EditorClassIdentifier: 
  m_Material: {fileID: 0}
  m_Color: {r: 0.19607843, g: 0.19607843, b: 0.19607843, a: 1}
  m_RaycastTarget: 1
  m_RaycastPadding: {x: 0, y: 0, z: 0, w: 0}
  m_Maskable: 1
  m_OnCullStateChanged:
    m_PersistentCalls:
      m_Calls: []
  m_FontData:
    m_Font: {fileID: 10102, guid: 0000000000000000e000000000000000, type: 0}
    m_FontSize: 28
    m_FontStyle: 0
    m_BestFit: 0
    m_MinSize: 10
    m_MaxSize: 40
    m_Alignment: 4
    m_AlignByGeometry: 0
    m_RichText: 1
    m_HorizontalOverflow: 0
    m_VerticalOverflow: 0
    m_LineSpacing: 1
  m_Text: Rotate In/Out
--- !u!222 &679402451
CanvasRenderer:
  m_ObjectHideFlags: 0
  m_CorrespondingSourceObject: {fileID: 0}
  m_PrefabInstance: {fileID: 0}
  m_PrefabAsset: {fileID: 0}
  m_GameObject: {fileID: 679402448}
  m_CullTransparentMesh: 1
--- !u!1 &683736325
GameObject:
  m_ObjectHideFlags: 0
  m_CorrespondingSourceObject: {fileID: 0}
  m_PrefabInstance: {fileID: 0}
  m_PrefabAsset: {fileID: 0}
  serializedVersion: 6
  m_Component:
  - component: {fileID: 683736326}
  - component: {fileID: 683736328}
  - component: {fileID: 683736327}
  m_Layer: 5
  m_Name: Fade In Out
  m_TagString: Untagged
  m_Icon: {fileID: 0}
  m_NavMeshLayer: 0
  m_StaticEditorFlags: 0
  m_IsActive: 1
--- !u!224 &683736326
RectTransform:
  m_ObjectHideFlags: 0
  m_CorrespondingSourceObject: {fileID: 0}
  m_PrefabInstance: {fileID: 0}
  m_PrefabAsset: {fileID: 0}
  m_GameObject: {fileID: 683736325}
  m_LocalRotation: {x: 0, y: 0, z: 0, w: 1}
  m_LocalPosition: {x: 0, y: 0, z: 0}
  m_LocalScale: {x: 1, y: 1, z: 1}
  m_Children: []
  m_Father: {fileID: 1860561880}
  m_RootOrder: 0
  m_LocalEulerAnglesHint: {x: 0, y: 0, z: 0}
  m_AnchorMin: {x: 0.5, y: 0.5}
  m_AnchorMax: {x: 0.5, y: 0.5}
  m_AnchoredPosition: {x: 0, y: 0}
  m_SizeDelta: {x: 100, y: 100}
  m_Pivot: {x: 0.5, y: 0.5}
--- !u!114 &683736327
MonoBehaviour:
  m_ObjectHideFlags: 0
  m_CorrespondingSourceObject: {fileID: 0}
  m_PrefabInstance: {fileID: 0}
  m_PrefabAsset: {fileID: 0}
  m_GameObject: {fileID: 683736325}
  m_Enabled: 1
  m_EditorHideFlags: 0
  m_Script: {fileID: 11500000, guid: 5f7201a12d95ffc409449d95f23cf332, type: 3}
  m_Name: 
  m_EditorClassIdentifier: 
  m_Material: {fileID: 0}
  m_Color: {r: 0.19607843, g: 0.19607843, b: 0.19607843, a: 1}
  m_RaycastTarget: 1
  m_RaycastPadding: {x: 0, y: 0, z: 0, w: 0}
  m_Maskable: 1
  m_OnCullStateChanged:
    m_PersistentCalls:
      m_Calls: []
  m_FontData:
    m_Font: {fileID: 10102, guid: 0000000000000000e000000000000000, type: 0}
    m_FontSize: 28
    m_FontStyle: 0
    m_BestFit: 0
    m_MinSize: 10
    m_MaxSize: 40
    m_Alignment: 4
    m_AlignByGeometry: 0
    m_RichText: 1
    m_HorizontalOverflow: 0
    m_VerticalOverflow: 0
    m_LineSpacing: 1
  m_Text: Fade In/Out
--- !u!222 &683736328
CanvasRenderer:
  m_ObjectHideFlags: 0
  m_CorrespondingSourceObject: {fileID: 0}
  m_PrefabInstance: {fileID: 0}
  m_PrefabAsset: {fileID: 0}
  m_GameObject: {fileID: 683736325}
  m_CullTransparentMesh: 1
--- !u!1 &865703859
GameObject:
  m_ObjectHideFlags: 0
  m_CorrespondingSourceObject: {fileID: 0}
  m_PrefabInstance: {fileID: 0}
  m_PrefabAsset: {fileID: 0}
  serializedVersion: 6
  m_Component:
  - component: {fileID: 865703860}
  - component: {fileID: 865703862}
  - component: {fileID: 865703861}
  m_Layer: 5
  m_Name: Fade Loop
  m_TagString: Untagged
  m_Icon: {fileID: 0}
  m_NavMeshLayer: 0
  m_StaticEditorFlags: 0
  m_IsActive: 1
--- !u!224 &865703860
RectTransform:
  m_ObjectHideFlags: 0
  m_CorrespondingSourceObject: {fileID: 0}
  m_PrefabInstance: {fileID: 0}
  m_PrefabAsset: {fileID: 0}
  m_GameObject: {fileID: 865703859}
  m_LocalRotation: {x: 0, y: 0, z: 0, w: 1}
  m_LocalPosition: {x: 0, y: 0, z: 0}
  m_LocalScale: {x: 1, y: 1, z: 1}
  m_Children: []
  m_Father: {fileID: 917317771}
  m_RootOrder: 0
  m_LocalEulerAnglesHint: {x: 0, y: 0, z: 0}
  m_AnchorMin: {x: 0.5, y: 0.5}
  m_AnchorMax: {x: 0.5, y: 0.5}
  m_AnchoredPosition: {x: 0, y: 0}
  m_SizeDelta: {x: 100, y: 100}
  m_Pivot: {x: 0.5, y: 0.5}
--- !u!114 &865703861
MonoBehaviour:
  m_ObjectHideFlags: 0
  m_CorrespondingSourceObject: {fileID: 0}
  m_PrefabInstance: {fileID: 0}
  m_PrefabAsset: {fileID: 0}
  m_GameObject: {fileID: 865703859}
  m_Enabled: 1
  m_EditorHideFlags: 0
  m_Script: {fileID: 11500000, guid: 5f7201a12d95ffc409449d95f23cf332, type: 3}
  m_Name: 
  m_EditorClassIdentifier: 
  m_Material: {fileID: 0}
  m_Color: {r: 0.19607843, g: 0.19607843, b: 0.19607843, a: 1}
  m_RaycastTarget: 1
  m_RaycastPadding: {x: 0, y: 0, z: 0, w: 0}
  m_Maskable: 1
  m_OnCullStateChanged:
    m_PersistentCalls:
      m_Calls: []
  m_FontData:
    m_Font: {fileID: 10102, guid: 0000000000000000e000000000000000, type: 0}
    m_FontSize: 28
    m_FontStyle: 0
    m_BestFit: 0
    m_MinSize: 10
    m_MaxSize: 40
    m_Alignment: 4
    m_AlignByGeometry: 0
    m_RichText: 1
    m_HorizontalOverflow: 0
    m_VerticalOverflow: 0
    m_LineSpacing: 1
  m_Text: Fade Loop
--- !u!222 &865703862
CanvasRenderer:
  m_ObjectHideFlags: 0
  m_CorrespondingSourceObject: {fileID: 0}
  m_PrefabInstance: {fileID: 0}
  m_PrefabAsset: {fileID: 0}
  m_GameObject: {fileID: 865703859}
  m_CullTransparentMesh: 1
--- !u!1 &917317770
GameObject:
  m_ObjectHideFlags: 0
  m_CorrespondingSourceObject: {fileID: 0}
  m_PrefabInstance: {fileID: 0}
  m_PrefabAsset: {fileID: 0}
  serializedVersion: 6
  m_Component:
  - component: {fileID: 917317771}
  - component: {fileID: 917317774}
  - component: {fileID: 917317773}
  - component: {fileID: 917317772}
  m_Layer: 5
  m_Name: Image Fade Loop
  m_TagString: Untagged
  m_Icon: {fileID: 0}
  m_NavMeshLayer: 0
  m_StaticEditorFlags: 0
  m_IsActive: 1
--- !u!224 &917317771
RectTransform:
  m_ObjectHideFlags: 0
  m_CorrespondingSourceObject: {fileID: 0}
  m_PrefabInstance: {fileID: 0}
  m_PrefabAsset: {fileID: 0}
  m_GameObject: {fileID: 917317770}
  m_LocalRotation: {x: 0, y: 0, z: 0, w: 1}
  m_LocalPosition: {x: 0, y: 0, z: 0}
  m_LocalScale: {x: 1, y: 1, z: 1}
  m_Children:
  - {fileID: 865703860}
  m_Father: {fileID: 621921621}
  m_RootOrder: 8
  m_LocalEulerAnglesHint: {x: 0, y: 0, z: 0}
  m_AnchorMin: {x: 0.5, y: 0.5}
  m_AnchorMax: {x: 0.5, y: 0.5}
  m_AnchoredPosition: {x: 415, y: -300}
  m_SizeDelta: {x: 100, y: 100}
  m_Pivot: {x: 0.5, y: 0.5}
--- !u!114 &917317772
MonoBehaviour:
  m_ObjectHideFlags: 0
  m_CorrespondingSourceObject: {fileID: 0}
  m_PrefabInstance: {fileID: 0}
  m_PrefabAsset: {fileID: 0}
  m_GameObject: {fileID: 917317770}
  m_Enabled: 1
  m_EditorHideFlags: 0
  m_Script: {fileID: -1853575441, guid: e12027aef8e7440199d1da19d3226929, type: 3}
  m_Name: 
  m_EditorClassIdentifier: 
  m_CameraLeftEdge: 0
  m_CameraRightEdge: 0
  m_CameraTopEdge: 0
  m_CameraBottomEdge: 0
  m_CanvasWorldTopLeft: {x: 0, y: 0, z: 0}
  m_CanvasWorldTopCenter: {x: 0, y: 0, z: 0}
  m_CanvasWorldTopRight: {x: 0, y: 0, z: 0}
  m_CanvasWorldMiddleLeft: {x: 0, y: 0, z: 0}
  m_CanvasWorldMiddleCenter: {x: 0, y: 0, z: 0}
  m_CanvasWorldMiddleRight: {x: 0, y: 0, z: 0}
  m_CanvasWorldBottomLeft: {x: 0, y: 0, z: 0}
  m_CanvasWorldBottomCenter: {x: 0, y: 0, z: 0}
  m_CanvasWorldBottomRight: {x: 0, y: 0, z: 0}
  m_TotalBounds:
    m_Center: {x: 0, y: 0, z: 0}
    m_Extent: {x: 0, y: 0, z: 0}
  m_MoveOriginal: {x: 0, y: 0, z: 0}
  m_RotationOriginal: {x: 0, y: 0, z: 0, w: 0}
  m_ScaleOriginal: {x: 0, y: 0, z: 0}
  m_FadeOriginal: 0
  m_FadeOriginalTextOutline: 0
  m_FadeOriginalTextShadow: 0
  m_MoveIn:
    Enable: 0
    Began: 0
    Animating: 0
    Done: 0
    MoveFrom: 2
    BeginPos: {x: 0, y: 0, z: 0}
    EndPos: {x: 0, y: 0, z: 0}
    Position: {x: 0, y: 0, z: 0}
    EaseType: 27
    Time: 1
    Delay: 0
    Sounds:
      m_Begin: {fileID: 0}
      m_AfterDelay: {fileID: 0}
      m_End: {fileID: 0}
  m_RotationIn:
    Enable: 0
    Began: 0
    Animating: 0
    Done: 0
    BeginRotation: {x: 0, y: 0, z: 0}
    EndRotation: {x: 0, y: 0, z: 0}
    Rotation: {x: 0, y: 0, z: 0}
    EaseType: 27
    Time: 1
    Delay: 0
    Sounds:
      m_Begin: {fileID: 0}
      m_AfterDelay: {fileID: 0}
      m_End: {fileID: 0}
  m_ScaleIn:
    Enable: 0
    Began: 0
    Animating: 0
    Done: 0
    ScaleBegin: {x: 0, y: 0, z: 0}
    EaseType: 27
    Time: 1
    Delay: 0
    Sounds:
      m_Begin: {fileID: 0}
      m_AfterDelay: {fileID: 0}
      m_End: {fileID: 0}
  m_FadeIn:
    Enable: 1
    Began: 0
    Animating: 0
    Done: 0
    Fade: 0
    EaseType: 21
    Time: 5
    Delay: 0
    FadeChildren: 1
    Sounds:
      m_Begin: {fileID: 0}
      m_AfterDelay: {fileID: 0}
      m_End: {fileID: 0}
  m_ScaleLoop:
    Enable: 0
    Began: 0
    Animating: 0
    IsOverriding: 0
    IsOverridingDelayTimeCount: 0
    Done: 0
    m_ScaleLast: {x: 0, y: 0, z: 0}
    Min: {x: 1, y: 1, z: 1}
    Max: {x: 1.05, y: 1.05, z: 1.05}
    EaseType: 21
    Time: 1
    Delay: 0
    Sound:
      m_AudioClip: {fileID: 0}
      m_Loop: 0
      m_AudioSource: {fileID: 0}
  m_FadeLoop:
    Enable: 1
    Began: 0
    Animating: 0
    IsOverriding: 0
    IsOverridingDelayTimeCount: 0
    Done: 0
    m_FadeLast: 0
    Min: 0
    Max: 1
    EaseType: 21
    Time: 2
    Delay: 0
    FadeChildren: 1
    Sound:
      m_AudioClip: {fileID: 0}
      m_Loop: 0
      m_AudioSource: {fileID: 0}
  m_MoveOut:
    Enable: 0
    Began: 0
    Animating: 0
    Done: 0
    MoveTo: 2
    BeginPos: {x: 0, y: 0, z: 0}
    EndPos: {x: 0, y: 0, z: 0}
    Position: {x: 0, y: 0, z: 0}
    EaseType: 26
    Time: 1
    Delay: 0
    Sounds:
      m_Begin: {fileID: 0}
      m_AfterDelay: {fileID: 0}
      m_End: {fileID: 0}
  m_RotationOut:
    Enable: 0
    Began: 0
    Animating: 0
    Done: 0
    BeginRotation: {x: 0, y: 0, z: 0}
    EndRotation: {x: 0, y: 0, z: 0}
    Rotation: {x: 0, y: 0, z: 0}
    EaseType: 26
    Time: 1
    Delay: 0
    Sounds:
      m_Begin: {fileID: 0}
      m_AfterDelay: {fileID: 0}
      m_End: {fileID: 0}
  m_ScaleOut:
    Enable: 0
    Began: 0
    Animating: 0
    Done: 0
    ScaleBegin: {x: 1, y: 1, z: 1}
    ScaleEnd: {x: 0, y: 0, z: 0}
    EaseType: 26
    Time: 1
    Delay: 0
    Sounds:
      m_Begin: {fileID: 0}
      m_AfterDelay: {fileID: 0}
      m_End: {fileID: 0}
  m_FadeOut:
    Enable: 1
    Began: 0
    Animating: 0
    Done: 0
    Fade: 0
    EaseType: 21
    Time: 1
    Delay: 0
    FadeChildren: 1
    Sounds:
      m_Begin: {fileID: 0}
      m_AfterDelay: {fileID: 0}
      m_End: {fileID: 0}
  m_MoveVariable: 0
  m_RotationVariable: 0
  m_ScaleVariable: 0
  m_FadeVariable: 0
--- !u!114 &917317773
MonoBehaviour:
  m_ObjectHideFlags: 0
  m_CorrespondingSourceObject: {fileID: 0}
  m_PrefabInstance: {fileID: 0}
  m_PrefabAsset: {fileID: 0}
  m_GameObject: {fileID: 917317770}
  m_Enabled: 1
  m_EditorHideFlags: 0
  m_Script: {fileID: 11500000, guid: fe87c0e1cc204ed48ad3b37840f39efc, type: 3}
  m_Name: 
  m_EditorClassIdentifier: 
  m_Material: {fileID: 0}
  m_Color: {r: 1, g: 0, b: 0, a: 1}
  m_RaycastTarget: 1
  m_RaycastPadding: {x: 0, y: 0, z: 0, w: 0}
  m_Maskable: 1
  m_OnCullStateChanged:
    m_PersistentCalls:
      m_Calls: []
  m_Sprite: {fileID: 0}
  m_Type: 0
  m_PreserveAspect: 0
  m_FillCenter: 1
  m_FillMethod: 4
  m_FillAmount: 1
  m_FillClockwise: 1
  m_FillOrigin: 0
  m_UseSpriteMesh: 0
  m_PixelsPerUnitMultiplier: 1
--- !u!222 &917317774
CanvasRenderer:
  m_ObjectHideFlags: 0
  m_CorrespondingSourceObject: {fileID: 0}
  m_PrefabInstance: {fileID: 0}
  m_PrefabAsset: {fileID: 0}
  m_GameObject: {fileID: 917317770}
  m_CullTransparentMesh: 1
--- !u!1 &1142224665
GameObject:
  m_ObjectHideFlags: 0
  m_CorrespondingSourceObject: {fileID: 0}
  m_PrefabInstance: {fileID: 0}
  m_PrefabAsset: {fileID: 0}
  serializedVersion: 6
  m_Component:
  - component: {fileID: 1142224669}
  - component: {fileID: 1142224668}
  - component: {fileID: 1142224667}
  - component: {fileID: 1142224666}
  m_Layer: 0
  m_Name: EventSystem
  m_TagString: Untagged
  m_Icon: {fileID: 0}
  m_NavMeshLayer: 0
  m_StaticEditorFlags: 0
  m_IsActive: 1
--- !u!114 &1142224666
MonoBehaviour:
  m_ObjectHideFlags: 0
  m_CorrespondingSourceObject: {fileID: 0}
  m_PrefabInstance: {fileID: 0}
  m_PrefabAsset: {fileID: 0}
  m_GameObject: {fileID: 1142224665}
  m_Enabled: 1
  m_EditorHideFlags: 0
  m_Script: {fileID: 11500000, guid: 2d49b7c1bcd2e07499844da127be038d, type: 3}
  m_Name: 
  m_EditorClassIdentifier: 
  m_ForceModuleActive: 0
--- !u!114 &1142224667
MonoBehaviour:
  m_ObjectHideFlags: 0
  m_CorrespondingSourceObject: {fileID: 0}
  m_PrefabInstance: {fileID: 0}
  m_PrefabAsset: {fileID: 0}
  m_GameObject: {fileID: 1142224665}
  m_Enabled: 1
  m_EditorHideFlags: 0
  m_Script: {fileID: 11500000, guid: 4f231c4fb786f3946a6b90b886c48677, type: 3}
  m_Name: 
  m_EditorClassIdentifier: 
  m_HorizontalAxis: Horizontal
  m_VerticalAxis: Vertical
  m_SubmitButton: Submit
  m_CancelButton: Cancel
  m_InputActionsPerSecond: 10
  m_RepeatDelay: 0.5
  m_ForceModuleActive: 0
--- !u!114 &1142224668
MonoBehaviour:
  m_ObjectHideFlags: 0
  m_CorrespondingSourceObject: {fileID: 0}
  m_PrefabInstance: {fileID: 0}
  m_PrefabAsset: {fileID: 0}
  m_GameObject: {fileID: 1142224665}
  m_Enabled: 1
  m_EditorHideFlags: 0
  m_Script: {fileID: 11500000, guid: 76c392e42b5098c458856cdf6ecaaaa1, type: 3}
  m_Name: 
  m_EditorClassIdentifier: 
  m_FirstSelected: {fileID: 0}
  m_sendNavigationEvents: 1
  m_DragThreshold: 5
--- !u!4 &1142224669
Transform:
  m_ObjectHideFlags: 0
  m_CorrespondingSourceObject: {fileID: 0}
  m_PrefabInstance: {fileID: 0}
  m_PrefabAsset: {fileID: 0}
  m_GameObject: {fileID: 1142224665}
  m_LocalRotation: {x: 0, y: 0, z: 0, w: 1}
  m_LocalPosition: {x: 0, y: 0, z: 0}
  m_LocalScale: {x: 1, y: 1, z: 1}
  m_Children: []
  m_Father: {fileID: 0}
  m_RootOrder: 4
  m_LocalEulerAnglesHint: {x: 0, y: 0, z: 0}
--- !u!1 &1231384128
GameObject:
  m_ObjectHideFlags: 0
  m_CorrespondingSourceObject: {fileID: 0}
  m_PrefabInstance: {fileID: 0}
  m_PrefabAsset: {fileID: 0}
  serializedVersion: 6
  m_Component:
  - component: {fileID: 1231384129}
  - component: {fileID: 1231384131}
  - component: {fileID: 1231384130}
  m_Layer: 5
  m_Name: Move from left
  m_TagString: Untagged
  m_Icon: {fileID: 0}
  m_NavMeshLayer: 0
  m_StaticEditorFlags: 0
  m_IsActive: 1
--- !u!224 &1231384129
RectTransform:
  m_ObjectHideFlags: 0
  m_CorrespondingSourceObject: {fileID: 0}
  m_PrefabInstance: {fileID: 0}
  m_PrefabAsset: {fileID: 0}
  m_GameObject: {fileID: 1231384128}
  m_LocalRotation: {x: 0, y: 0, z: 0, w: 1}
  m_LocalPosition: {x: 0, y: 0, z: 0}
  m_LocalScale: {x: 1, y: 1, z: 1}
  m_Children: []
  m_Father: {fileID: 174607645}
  m_RootOrder: 0
  m_LocalEulerAnglesHint: {x: 0, y: 0, z: 0}
  m_AnchorMin: {x: 0.5, y: 0.5}
  m_AnchorMax: {x: 0.5, y: 0.5}
  m_AnchoredPosition: {x: 0, y: 0}
  m_SizeDelta: {x: 100, y: 100}
  m_Pivot: {x: 0.5, y: 0.5}
--- !u!114 &1231384130
MonoBehaviour:
  m_ObjectHideFlags: 0
  m_CorrespondingSourceObject: {fileID: 0}
  m_PrefabInstance: {fileID: 0}
  m_PrefabAsset: {fileID: 0}
  m_GameObject: {fileID: 1231384128}
  m_Enabled: 1
  m_EditorHideFlags: 0
  m_Script: {fileID: 11500000, guid: 5f7201a12d95ffc409449d95f23cf332, type: 3}
  m_Name: 
  m_EditorClassIdentifier: 
  m_Material: {fileID: 0}
  m_Color: {r: 1, g: 1, b: 1, a: 1}
  m_RaycastTarget: 1
  m_RaycastPadding: {x: 0, y: 0, z: 0, w: 0}
  m_Maskable: 1
  m_OnCullStateChanged:
    m_PersistentCalls:
      m_Calls: []
  m_FontData:
    m_Font: {fileID: 10102, guid: 0000000000000000e000000000000000, type: 0}
    m_FontSize: 28
    m_FontStyle: 0
    m_BestFit: 0
    m_MinSize: 10
    m_MaxSize: 40
    m_Alignment: 4
    m_AlignByGeometry: 0
    m_RichText: 1
    m_HorizontalOverflow: 0
    m_VerticalOverflow: 0
    m_LineSpacing: 1
  m_Text: MoveIn Left
--- !u!222 &1231384131
CanvasRenderer:
  m_ObjectHideFlags: 0
  m_CorrespondingSourceObject: {fileID: 0}
  m_PrefabInstance: {fileID: 0}
  m_PrefabAsset: {fileID: 0}
  m_GameObject: {fileID: 1231384128}
  m_CullTransparentMesh: 1
--- !u!1 &1244905943
GameObject:
  m_ObjectHideFlags: 0
  m_CorrespondingSourceObject: {fileID: 0}
  m_PrefabInstance: {fileID: 0}
  m_PrefabAsset: {fileID: 0}
  serializedVersion: 6
  m_Component:
  - component: {fileID: 1244905944}
  - component: {fileID: 1244905946}
  - component: {fileID: 1244905945}
  m_Layer: 5
  m_Name: Scale
  m_TagString: Untagged
  m_Icon: {fileID: 0}
  m_NavMeshLayer: 0
  m_StaticEditorFlags: 0
  m_IsActive: 1
--- !u!224 &1244905944
RectTransform:
  m_ObjectHideFlags: 0
  m_CorrespondingSourceObject: {fileID: 0}
  m_PrefabInstance: {fileID: 0}
  m_PrefabAsset: {fileID: 0}
  m_GameObject: {fileID: 1244905943}
  m_LocalRotation: {x: 0, y: 0, z: 0, w: 1}
  m_LocalPosition: {x: 0, y: 0, z: 0}
  m_LocalScale: {x: 1, y: 1, z: 1}
  m_Children: []
  m_Father: {fileID: 75568675}
  m_RootOrder: 0
  m_LocalEulerAnglesHint: {x: 0, y: 0, z: 0}
  m_AnchorMin: {x: 0.5, y: 0.5}
  m_AnchorMax: {x: 0.5, y: 0.5}
  m_AnchoredPosition: {x: 0, y: 0}
  m_SizeDelta: {x: 100, y: 100}
  m_Pivot: {x: 0.5, y: 0.5}
--- !u!114 &1244905945
MonoBehaviour:
  m_ObjectHideFlags: 0
  m_CorrespondingSourceObject: {fileID: 0}
  m_PrefabInstance: {fileID: 0}
  m_PrefabAsset: {fileID: 0}
  m_GameObject: {fileID: 1244905943}
  m_Enabled: 1
  m_EditorHideFlags: 0
  m_Script: {fileID: 11500000, guid: 5f7201a12d95ffc409449d95f23cf332, type: 3}
  m_Name: 
  m_EditorClassIdentifier: 
  m_Material: {fileID: 0}
  m_Color: {r: 0.19607843, g: 0.19607843, b: 0.19607843, a: 1}
  m_RaycastTarget: 1
  m_RaycastPadding: {x: 0, y: 0, z: 0, w: 0}
  m_Maskable: 1
  m_OnCullStateChanged:
    m_PersistentCalls:
      m_Calls: []
  m_FontData:
    m_Font: {fileID: 10102, guid: 0000000000000000e000000000000000, type: 0}
    m_FontSize: 28
    m_FontStyle: 0
    m_BestFit: 0
    m_MinSize: 10
    m_MaxSize: 40
    m_Alignment: 4
    m_AlignByGeometry: 0
    m_RichText: 1
    m_HorizontalOverflow: 0
    m_VerticalOverflow: 0
    m_LineSpacing: 1
  m_Text: Scale
--- !u!222 &1244905946
CanvasRenderer:
  m_ObjectHideFlags: 0
  m_CorrespondingSourceObject: {fileID: 0}
  m_PrefabInstance: {fileID: 0}
  m_PrefabAsset: {fileID: 0}
  m_GameObject: {fileID: 1244905943}
  m_CullTransparentMesh: 1
--- !u!1 &1300863227
GameObject:
  m_ObjectHideFlags: 0
  m_CorrespondingSourceObject: {fileID: 0}
  m_PrefabInstance: {fileID: 0}
  m_PrefabAsset: {fileID: 0}
  serializedVersion: 6
  m_Component:
  - component: {fileID: 1300863228}
  - component: {fileID: 1300863231}
  - component: {fileID: 1300863230}
  - component: {fileID: 1300863229}
  m_Layer: 5
  m_Name: Text Note
  m_TagString: Untagged
  m_Icon: {fileID: 0}
  m_NavMeshLayer: 0
  m_StaticEditorFlags: 0
  m_IsActive: 1
--- !u!224 &1300863228
RectTransform:
  m_ObjectHideFlags: 0
  m_CorrespondingSourceObject: {fileID: 0}
  m_PrefabInstance: {fileID: 0}
  m_PrefabAsset: {fileID: 0}
  m_GameObject: {fileID: 1300863227}
  m_LocalRotation: {x: 0, y: 0, z: 0, w: 1}
  m_LocalPosition: {x: 0, y: 0, z: 0}
  m_LocalScale: {x: 1, y: 1, z: 1}
  m_Children: []
  m_Father: {fileID: 621921621}
  m_RootOrder: 9
  m_LocalEulerAnglesHint: {x: 0, y: 0, z: 0}
  m_AnchorMin: {x: 0.5, y: 0}
  m_AnchorMax: {x: 0.5, y: 0}
  m_AnchoredPosition: {x: 0, y: 0}
  m_SizeDelta: {x: 100, y: 125}
  m_Pivot: {x: 0.5, y: 0}
--- !u!114 &1300863229
MonoBehaviour:
  m_ObjectHideFlags: 0
  m_CorrespondingSourceObject: {fileID: 0}
  m_PrefabInstance: {fileID: 0}
  m_PrefabAsset: {fileID: 0}
  m_GameObject: {fileID: 1300863227}
  m_Enabled: 1
  m_EditorHideFlags: 0
  m_Script: {fileID: 11500000, guid: e19747de3f5aca642ab2be37e372fb86, type: 3}
  m_Name: 
  m_EditorClassIdentifier: 
  m_EffectColor: {r: 0, g: 0, b: 0, a: 1}
  m_EffectDistance: {x: 1, y: -1}
  m_UseGraphicAlpha: 1
--- !u!114 &1300863230
MonoBehaviour:
  m_ObjectHideFlags: 0
  m_CorrespondingSourceObject: {fileID: 0}
  m_PrefabInstance: {fileID: 0}
  m_PrefabAsset: {fileID: 0}
  m_GameObject: {fileID: 1300863227}
  m_Enabled: 1
  m_EditorHideFlags: 0
  m_Script: {fileID: 11500000, guid: 5f7201a12d95ffc409449d95f23cf332, type: 3}
  m_Name: 
  m_EditorClassIdentifier: 
  m_Material: {fileID: 0}
  m_Color: {r: 1, g: 1, b: 1, a: 1}
  m_RaycastTarget: 1
  m_RaycastPadding: {x: 0, y: 0, z: 0, w: 0}
  m_Maskable: 1
  m_OnCullStateChanged:
    m_PersistentCalls:
      m_Calls: []
  m_FontData:
    m_Font: {fileID: 12800000, guid: f3171a835dc526844acd217577aab17c, type: 3}
    m_FontSize: 28
    m_FontStyle: 0
    m_BestFit: 0
    m_MinSize: 2
    m_MaxSize: 40
    m_Alignment: 4
    m_AlignByGeometry: 0
    m_RichText: 1
    m_HorizontalOverflow: 1
    m_VerticalOverflow: 1
    m_LineSpacing: 1
  m_Text: 'This scene automatically plays <color=#ffff00ff>In</color>, <color=#ffff00ff>Idle</color>,
    <color=#ffff00ff>Out</color> animations.

    If <color=#ffff00ff>Auto Animation</color>
    (<color=#ffff00ff>GUIAnimSystemFREE</color> in <color=#ffff00ff>Hierachy tab</color>)
    is checked, the animations will play when the scene Starts.

    Try adjust the
    <color=#ffff00ff>Idle Time</color> of <color=#ffff00ff>GUIAnimSystemFREE</color>
    for longer <color=#ffff00ff>Idle</color> animations'
--- !u!222 &1300863231
CanvasRenderer:
  m_ObjectHideFlags: 0
  m_CorrespondingSourceObject: {fileID: 0}
  m_PrefabInstance: {fileID: 0}
  m_PrefabAsset: {fileID: 0}
  m_GameObject: {fileID: 1300863227}
  m_CullTransparentMesh: 1
--- !u!1001 &1362277947
PrefabInstance:
  m_ObjectHideFlags: 0
  serializedVersion: 2
  m_Modification:
    m_TransformParent: {fileID: 0}
    m_Modifications:
    - target: {fileID: 490726, guid: 2213776e3293a42528266c30caae46f0, type: 3}
      propertyPath: m_RootOrder
      value: 0
      objectReference: {fileID: 0}
    - target: {fileID: 490726, guid: 2213776e3293a42528266c30caae46f0, type: 3}
      propertyPath: m_LocalPosition.x
      value: 0
      objectReference: {fileID: 0}
    - target: {fileID: 490726, guid: 2213776e3293a42528266c30caae46f0, type: 3}
      propertyPath: m_LocalPosition.y
      value: 0
      objectReference: {fileID: 0}
    - target: {fileID: 490726, guid: 2213776e3293a42528266c30caae46f0, type: 3}
      propertyPath: m_LocalPosition.z
      value: 0
      objectReference: {fileID: 0}
    - target: {fileID: 490726, guid: 2213776e3293a42528266c30caae46f0, type: 3}
      propertyPath: m_LocalRotation.w
      value: 1
      objectReference: {fileID: 0}
    - target: {fileID: 490726, guid: 2213776e3293a42528266c30caae46f0, type: 3}
      propertyPath: m_LocalRotation.x
      value: 0
      objectReference: {fileID: 0}
    - target: {fileID: 490726, guid: 2213776e3293a42528266c30caae46f0, type: 3}
      propertyPath: m_LocalRotation.y
      value: 0
      objectReference: {fileID: 0}
    - target: {fileID: 490726, guid: 2213776e3293a42528266c30caae46f0, type: 3}
      propertyPath: m_LocalRotation.z
      value: 0
      objectReference: {fileID: 0}
    - target: {fileID: 11425034, guid: 2213776e3293a42528266c30caae46f0, type: 3}
      propertyPath: m_GUISpeed
      value: 1
      objectReference: {fileID: 0}
    - target: {fileID: 11425034, guid: 2213776e3293a42528266c30caae46f0, type: 3}
      propertyPath: m_IdleTime
      value: 10
      objectReference: {fileID: 0}
    m_RemovedComponents: []
  m_SourcePrefab: {fileID: 100100000, guid: 2213776e3293a42528266c30caae46f0, type: 3}
--- !u!1 &1514877896
GameObject:
  m_ObjectHideFlags: 0
  m_CorrespondingSourceObject: {fileID: 0}
  m_PrefabInstance: {fileID: 0}
  m_PrefabAsset: {fileID: 0}
  serializedVersion: 6
  m_Component:
  - component: {fileID: 1514877899}
  - component: {fileID: 1514877898}
  - component: {fileID: 1514877897}
  m_Layer: 5
  m_Name: Move from top
  m_TagString: Untagged
  m_Icon: {fileID: 0}
  m_NavMeshLayer: 0
  m_StaticEditorFlags: 0
  m_IsActive: 1
--- !u!114 &1514877897
MonoBehaviour:
  m_ObjectHideFlags: 0
  m_CorrespondingSourceObject: {fileID: 0}
  m_PrefabInstance: {fileID: 0}
  m_PrefabAsset: {fileID: 0}
  m_GameObject: {fileID: 1514877896}
  m_Enabled: 1
  m_EditorHideFlags: 0
  m_Script: {fileID: 11500000, guid: 5f7201a12d95ffc409449d95f23cf332, type: 3}
  m_Name: 
  m_EditorClassIdentifier: 
  m_Material: {fileID: 0}
  m_Color: {r: 0.19607843, g: 0.19607843, b: 0.19607843, a: 1}
  m_RaycastTarget: 1
  m_RaycastPadding: {x: 0, y: 0, z: 0, w: 0}
  m_Maskable: 1
  m_OnCullStateChanged:
    m_PersistentCalls:
      m_Calls: []
  m_FontData:
    m_Font: {fileID: 10102, guid: 0000000000000000e000000000000000, type: 0}
    m_FontSize: 28
    m_FontStyle: 0
    m_BestFit: 0
    m_MinSize: 10
    m_MaxSize: 40
    m_Alignment: 4
    m_AlignByGeometry: 0
    m_RichText: 1
    m_HorizontalOverflow: 0
    m_VerticalOverflow: 0
    m_LineSpacing: 1
  m_Text: MoveIn Top
--- !u!222 &1514877898
CanvasRenderer:
  m_ObjectHideFlags: 0
  m_CorrespondingSourceObject: {fileID: 0}
  m_PrefabInstance: {fileID: 0}
  m_PrefabAsset: {fileID: 0}
  m_GameObject: {fileID: 1514877896}
  m_CullTransparentMesh: 1
--- !u!224 &1514877899
RectTransform:
  m_ObjectHideFlags: 0
  m_CorrespondingSourceObject: {fileID: 0}
  m_PrefabInstance: {fileID: 0}
  m_PrefabAsset: {fileID: 0}
  m_GameObject: {fileID: 1514877896}
  m_LocalRotation: {x: 0, y: 0, z: 0, w: 1}
  m_LocalPosition: {x: 0, y: 0, z: 0}
  m_LocalScale: {x: 1, y: 1, z: 1}
  m_Children: []
  m_Father: {fileID: 647763006}
  m_RootOrder: 0
  m_LocalEulerAnglesHint: {x: 0, y: 0, z: 0}
  m_AnchorMin: {x: 0.5, y: 0.5}
  m_AnchorMax: {x: 0.5, y: 0.5}
  m_AnchoredPosition: {x: 0, y: 0}
  m_SizeDelta: {x: 100, y: 100}
  m_Pivot: {x: 0.5, y: 0.5}
--- !u!1 &1748170635
GameObject:
  m_ObjectHideFlags: 0
  m_CorrespondingSourceObject: {fileID: 0}
  m_PrefabInstance: {fileID: 0}
  m_PrefabAsset: {fileID: 0}
  serializedVersion: 6
  m_Component:
  - component: {fileID: 1748170636}
  - component: {fileID: 1748170639}
  - component: {fileID: 1748170638}
  - component: {fileID: 1748170637}
  m_Layer: 5
  m_Name: Image Move From Right
  m_TagString: Untagged
  m_Icon: {fileID: 0}
  m_NavMeshLayer: 0
  m_StaticEditorFlags: 0
  m_IsActive: 1
--- !u!224 &1748170636
RectTransform:
  m_ObjectHideFlags: 0
  m_CorrespondingSourceObject: {fileID: 0}
  m_PrefabInstance: {fileID: 0}
  m_PrefabAsset: {fileID: 0}
  m_GameObject: {fileID: 1748170635}
  m_LocalRotation: {x: 0, y: 0, z: 0, w: 1}
  m_LocalPosition: {x: 0, y: 0, z: 0}
  m_LocalScale: {x: 1, y: 1, z: 1}
  m_Children:
  - {fileID: 342916246}
  m_Father: {fileID: 621921621}
  m_RootOrder: 2
  m_LocalEulerAnglesHint: {x: 0, y: 0, z: 0}
  m_AnchorMin: {x: 0.5, y: 0.5}
  m_AnchorMax: {x: 0.5, y: 0.5}
  m_AnchoredPosition: {x: 110, y: 0}
  m_SizeDelta: {x: 100, y: 100}
  m_Pivot: {x: 0.5, y: 0.5}
--- !u!114 &1748170637
MonoBehaviour:
  m_ObjectHideFlags: 0
  m_CorrespondingSourceObject: {fileID: 0}
  m_PrefabInstance: {fileID: 0}
  m_PrefabAsset: {fileID: 0}
  m_GameObject: {fileID: 1748170635}
  m_Enabled: 1
  m_EditorHideFlags: 0
  m_Script: {fileID: -1853575441, guid: e12027aef8e7440199d1da19d3226929, type: 3}
  m_Name: 
  m_EditorClassIdentifier: 
  m_CameraLeftEdge: 0
  m_CameraRightEdge: 0
  m_CameraTopEdge: 0
  m_CameraBottomEdge: 0
  m_CanvasWorldTopLeft: {x: 0, y: 0, z: 0}
  m_CanvasWorldTopCenter: {x: 0, y: 0, z: 0}
  m_CanvasWorldTopRight: {x: 0, y: 0, z: 0}
  m_CanvasWorldMiddleLeft: {x: 0, y: 0, z: 0}
  m_CanvasWorldMiddleCenter: {x: 0, y: 0, z: 0}
  m_CanvasWorldMiddleRight: {x: 0, y: 0, z: 0}
  m_CanvasWorldBottomLeft: {x: 0, y: 0, z: 0}
  m_CanvasWorldBottomCenter: {x: 0, y: 0, z: 0}
  m_CanvasWorldBottomRight: {x: 0, y: 0, z: 0}
  m_TotalBounds:
    m_Center: {x: 0, y: 0, z: 0}
    m_Extent: {x: 0, y: 0, z: 0}
  m_MoveOriginal: {x: 0, y: 0, z: 0}
  m_RotationOriginal: {x: 0, y: 0, z: 0, w: 0}
  m_ScaleOriginal: {x: 0, y: 0, z: 0}
  m_FadeOriginal: 0
  m_FadeOriginalTextOutline: 0
  m_FadeOriginalTextShadow: 0
  m_MoveIn:
    Enable: 1
    Began: 0
    Animating: 0
    Done: 0
    MoveFrom: 4
    BeginPos: {x: 0, y: 0, z: 0}
    EndPos: {x: 0, y: 0, z: 0}
    Position: {x: 0, y: 0, z: 0}
    EaseType: 27
    Time: 2
    Delay: 0.1
    Sounds:
      m_Begin: {fileID: 0}
      m_AfterDelay: {fileID: 0}
      m_End: {fileID: 0}
  m_RotationIn:
    Enable: 0
    Began: 0
    Animating: 0
    Done: 0
    BeginRotation: {x: 0, y: 0, z: 0}
    EndRotation: {x: 0, y: 0, z: 0}
    Rotation: {x: 0, y: 0, z: 0}
    EaseType: 27
    Time: 1
    Delay: 0
    Sounds:
      m_Begin: {fileID: 0}
      m_AfterDelay: {fileID: 0}
      m_End: {fileID: 0}
  m_ScaleIn:
    Enable: 0
    Began: 0
    Animating: 0
    Done: 0
    ScaleBegin: {x: 0, y: 0, z: 0}
    EaseType: 27
    Time: 1
    Delay: 0
    Sounds:
      m_Begin: {fileID: 0}
      m_AfterDelay: {fileID: 0}
      m_End: {fileID: 0}
  m_FadeIn:
    Enable: 0
    Began: 0
    Animating: 0
    Done: 0
    Fade: 0
    EaseType: 21
    Time: 1
    Delay: 0
    FadeChildren: 0
    Sounds:
      m_Begin: {fileID: 0}
      m_AfterDelay: {fileID: 0}
      m_End: {fileID: 0}
  m_ScaleLoop:
    Enable: 0
    Began: 0
    Animating: 0
    IsOverriding: 0
    IsOverridingDelayTimeCount: 0
    Done: 0
    m_ScaleLast: {x: 0, y: 0, z: 0}
    Min: {x: 1, y: 1, z: 1}
    Max: {x: 1.05, y: 1.05, z: 1.05}
    EaseType: 21
    Time: 1
    Delay: 0
    Sound:
      m_AudioClip: {fileID: 0}
      m_Loop: 0
      m_AudioSource: {fileID: 0}
  m_FadeLoop:
    Enable: 0
    Began: 0
    Animating: 0
    IsOverriding: 0
    IsOverridingDelayTimeCount: 0
    Done: 0
    m_FadeLast: 0
    Min: 0
    Max: 1
    EaseType: 21
    Time: 1
    Delay: 0
    FadeChildren: 0
    Sound:
      m_AudioClip: {fileID: 0}
      m_Loop: 0
      m_AudioSource: {fileID: 0}
  m_MoveOut:
    Enable: 1
    Began: 0
    Animating: 0
    Done: 0
    MoveTo: 4
    BeginPos: {x: 0, y: 0, z: 0}
    EndPos: {x: 0, y: 0, z: 0}
    Position: {x: 0, y: 0, z: 0}
    EaseType: 26
    Time: 2
    Delay: 0
    Sounds:
      m_Begin: {fileID: 0}
      m_AfterDelay: {fileID: 0}
      m_End: {fileID: 0}
  m_RotationOut:
    Enable: 0
    Began: 0
    Animating: 0
    Done: 0
    BeginRotation: {x: 0, y: 0, z: 0}
    EndRotation: {x: 0, y: 0, z: 0}
    Rotation: {x: 0, y: 0, z: 0}
    EaseType: 26
    Time: 1
    Delay: 0
    Sounds:
      m_Begin: {fileID: 0}
      m_AfterDelay: {fileID: 0}
      m_End: {fileID: 0}
  m_ScaleOut:
    Enable: 0
    Began: 0
    Animating: 0
    Done: 0
    ScaleBegin: {x: 1, y: 1, z: 1}
    ScaleEnd: {x: 0, y: 0, z: 0}
    EaseType: 26
    Time: 1
    Delay: 0
    Sounds:
      m_Begin: {fileID: 0}
      m_AfterDelay: {fileID: 0}
      m_End: {fileID: 0}
  m_FadeOut:
    Enable: 0
    Began: 0
    Animating: 0
    Done: 0
    Fade: 0
    EaseType: 21
    Time: 1
    Delay: 0
    FadeChildren: 0
    Sounds:
      m_Begin: {fileID: 0}
      m_AfterDelay: {fileID: 0}
      m_End: {fileID: 0}
  m_MoveVariable: 0
  m_RotationVariable: 0
  m_ScaleVariable: 0
  m_FadeVariable: 0
--- !u!114 &1748170638
MonoBehaviour:
  m_ObjectHideFlags: 0
  m_CorrespondingSourceObject: {fileID: 0}
  m_PrefabInstance: {fileID: 0}
  m_PrefabAsset: {fileID: 0}
  m_GameObject: {fileID: 1748170635}
  m_Enabled: 1
  m_EditorHideFlags: 0
  m_Script: {fileID: 11500000, guid: fe87c0e1cc204ed48ad3b37840f39efc, type: 3}
  m_Name: 
  m_EditorClassIdentifier: 
  m_Material: {fileID: 0}
  m_Color: {r: 0, g: 0.83448267, b: 1, a: 1}
  m_RaycastTarget: 1
  m_RaycastPadding: {x: 0, y: 0, z: 0, w: 0}
  m_Maskable: 1
  m_OnCullStateChanged:
    m_PersistentCalls:
      m_Calls: []
  m_Sprite: {fileID: 0}
  m_Type: 0
  m_PreserveAspect: 0
  m_FillCenter: 1
  m_FillMethod: 4
  m_FillAmount: 1
  m_FillClockwise: 1
  m_FillOrigin: 0
  m_UseSpriteMesh: 0
  m_PixelsPerUnitMultiplier: 1
--- !u!222 &1748170639
CanvasRenderer:
  m_ObjectHideFlags: 0
  m_CorrespondingSourceObject: {fileID: 0}
  m_PrefabInstance: {fileID: 0}
  m_PrefabAsset: {fileID: 0}
  m_GameObject: {fileID: 1748170635}
  m_CullTransparentMesh: 1
--- !u!1 &1808691623
GameObject:
  m_ObjectHideFlags: 0
  m_CorrespondingSourceObject: {fileID: 0}
  m_PrefabInstance: {fileID: 0}
  m_PrefabAsset: {fileID: 0}
  serializedVersion: 6
  m_Component:
  - component: {fileID: 1808691624}
  - component: {fileID: 1808691627}
  - component: {fileID: 1808691626}
  - component: {fileID: 1808691625}
  m_Layer: 5
  m_Name: Image Move From Bottom
  m_TagString: Untagged
  m_Icon: {fileID: 0}
  m_NavMeshLayer: 0
  m_StaticEditorFlags: 0
  m_IsActive: 1
--- !u!224 &1808691624
RectTransform:
  m_ObjectHideFlags: 0
  m_CorrespondingSourceObject: {fileID: 0}
  m_PrefabInstance: {fileID: 0}
  m_PrefabAsset: {fileID: 0}
  m_GameObject: {fileID: 1808691623}
  m_LocalRotation: {x: 0, y: 0, z: 0, w: 1}
  m_LocalPosition: {x: 0, y: 0, z: 0}
  m_LocalScale: {x: 1, y: 1, z: 1}
  m_Children:
  - {fileID: 340599579}
  m_Father: {fileID: 621921621}
  m_RootOrder: 3
  m_LocalEulerAnglesHint: {x: 0, y: 0, z: 0}
  m_AnchorMin: {x: 0.5, y: 0.5}
  m_AnchorMax: {x: 0.5, y: 0.5}
  m_AnchoredPosition: {x: 0, y: -110}
  m_SizeDelta: {x: 100, y: 100}
  m_Pivot: {x: 0.5, y: 0.5}
--- !u!114 &1808691625
MonoBehaviour:
  m_ObjectHideFlags: 0
  m_CorrespondingSourceObject: {fileID: 0}
  m_PrefabInstance: {fileID: 0}
  m_PrefabAsset: {fileID: 0}
  m_GameObject: {fileID: 1808691623}
  m_Enabled: 1
  m_EditorHideFlags: 0
  m_Script: {fileID: -1853575441, guid: e12027aef8e7440199d1da19d3226929, type: 3}
  m_Name: 
  m_EditorClassIdentifier: 
  m_CameraLeftEdge: 0
  m_CameraRightEdge: 0
  m_CameraTopEdge: 0
  m_CameraBottomEdge: 0
  m_CanvasWorldTopLeft: {x: 0, y: 0, z: 0}
  m_CanvasWorldTopCenter: {x: 0, y: 0, z: 0}
  m_CanvasWorldTopRight: {x: 0, y: 0, z: 0}
  m_CanvasWorldMiddleLeft: {x: 0, y: 0, z: 0}
  m_CanvasWorldMiddleCenter: {x: 0, y: 0, z: 0}
  m_CanvasWorldMiddleRight: {x: 0, y: 0, z: 0}
  m_CanvasWorldBottomLeft: {x: 0, y: 0, z: 0}
  m_CanvasWorldBottomCenter: {x: 0, y: 0, z: 0}
  m_CanvasWorldBottomRight: {x: 0, y: 0, z: 0}
  m_TotalBounds:
    m_Center: {x: 0, y: 0, z: 0}
    m_Extent: {x: 0, y: 0, z: 0}
  m_MoveOriginal: {x: 0, y: 0, z: 0}
  m_RotationOriginal: {x: 0, y: 0, z: 0, w: 0}
  m_ScaleOriginal: {x: 0, y: 0, z: 0}
  m_FadeOriginal: 0
  m_FadeOriginalTextOutline: 0
  m_FadeOriginalTextShadow: 0
  m_MoveIn:
    Enable: 1
    Began: 0
    Animating: 0
    Done: 0
    MoveFrom: 5
    BeginPos: {x: 0, y: 0, z: 0}
    EndPos: {x: 0, y: 0, z: 0}
    Position: {x: 0, y: 0, z: 0}
    EaseType: 27
    Time: 2
    Delay: 0.1
    Sounds:
      m_Begin: {fileID: 0}
      m_AfterDelay: {fileID: 0}
      m_End: {fileID: 0}
  m_RotationIn:
    Enable: 0
    Began: 0
    Animating: 0
    Done: 0
    BeginRotation: {x: 0, y: 0, z: 0}
    EndRotation: {x: 0, y: 0, z: 0}
    Rotation: {x: 0, y: 0, z: 0}
    EaseType: 27
    Time: 1
    Delay: 0
    Sounds:
      m_Begin: {fileID: 0}
      m_AfterDelay: {fileID: 0}
      m_End: {fileID: 0}
  m_ScaleIn:
    Enable: 0
    Began: 0
    Animating: 0
    Done: 0
    ScaleBegin: {x: 0, y: 0, z: 0}
    EaseType: 27
    Time: 1
    Delay: 0
    Sounds:
      m_Begin: {fileID: 0}
      m_AfterDelay: {fileID: 0}
      m_End: {fileID: 0}
  m_FadeIn:
    Enable: 0
    Began: 0
    Animating: 0
    Done: 0
    Fade: 0
    EaseType: 21
    Time: 1
    Delay: 0
    FadeChildren: 0
    Sounds:
      m_Begin: {fileID: 0}
      m_AfterDelay: {fileID: 0}
      m_End: {fileID: 0}
  m_ScaleLoop:
    Enable: 0
    Began: 0
    Animating: 0
    IsOverriding: 0
    IsOverridingDelayTimeCount: 0
    Done: 0
    m_ScaleLast: {x: 0, y: 0, z: 0}
    Min: {x: 1, y: 1, z: 1}
    Max: {x: 1.05, y: 1.05, z: 1.05}
    EaseType: 21
    Time: 1
    Delay: 0
    Sound:
      m_AudioClip: {fileID: 0}
      m_Loop: 0
      m_AudioSource: {fileID: 0}
  m_FadeLoop:
    Enable: 0
    Began: 0
    Animating: 0
    IsOverriding: 0
    IsOverridingDelayTimeCount: 0
    Done: 0
    m_FadeLast: 0
    Min: 0
    Max: 1
    EaseType: 21
    Time: 1
    Delay: 0
    FadeChildren: 0
    Sound:
      m_AudioClip: {fileID: 0}
      m_Loop: 0
      m_AudioSource: {fileID: 0}
  m_MoveOut:
    Enable: 1
    Began: 0
    Animating: 0
    Done: 0
    MoveTo: 5
    BeginPos: {x: 0, y: 0, z: 0}
    EndPos: {x: 0, y: 0, z: 0}
    Position: {x: 0, y: 0, z: 0}
    EaseType: 26
    Time: 2
    Delay: 0
    Sounds:
      m_Begin: {fileID: 0}
      m_AfterDelay: {fileID: 0}
      m_End: {fileID: 0}
  m_RotationOut:
    Enable: 0
    Began: 0
    Animating: 0
    Done: 0
    BeginRotation: {x: 0, y: 0, z: 0}
    EndRotation: {x: 0, y: 0, z: 0}
    Rotation: {x: 0, y: 0, z: 0}
    EaseType: 26
    Time: 1
    Delay: 0
    Sounds:
      m_Begin: {fileID: 0}
      m_AfterDelay: {fileID: 0}
      m_End: {fileID: 0}
  m_ScaleOut:
    Enable: 0
    Began: 0
    Animating: 0
    Done: 0
    ScaleBegin: {x: 1, y: 1, z: 1}
    ScaleEnd: {x: 0, y: 0, z: 0}
    EaseType: 26
    Time: 1
    Delay: 0
    Sounds:
      m_Begin: {fileID: 0}
      m_AfterDelay: {fileID: 0}
      m_End: {fileID: 0}
  m_FadeOut:
    Enable: 0
    Began: 0
    Animating: 0
    Done: 0
    Fade: 0
    EaseType: 21
    Time: 1
    Delay: 0
    FadeChildren: 0
    Sounds:
      m_Begin: {fileID: 0}
      m_AfterDelay: {fileID: 0}
      m_End: {fileID: 0}
  m_MoveVariable: 0
  m_RotationVariable: 0
  m_ScaleVariable: 0
  m_FadeVariable: 0
--- !u!114 &1808691626
MonoBehaviour:
  m_ObjectHideFlags: 0
  m_CorrespondingSourceObject: {fileID: 0}
  m_PrefabInstance: {fileID: 0}
  m_PrefabAsset: {fileID: 0}
  m_GameObject: {fileID: 1808691623}
  m_Enabled: 1
  m_EditorHideFlags: 0
  m_Script: {fileID: 11500000, guid: fe87c0e1cc204ed48ad3b37840f39efc, type: 3}
  m_Name: 
  m_EditorClassIdentifier: 
  m_Material: {fileID: 0}
  m_Color: {r: 0, g: 1, b: 0.2965517, a: 1}
  m_RaycastTarget: 1
  m_RaycastPadding: {x: 0, y: 0, z: 0, w: 0}
  m_Maskable: 1
  m_OnCullStateChanged:
    m_PersistentCalls:
      m_Calls: []
  m_Sprite: {fileID: 0}
  m_Type: 0
  m_PreserveAspect: 0
  m_FillCenter: 1
  m_FillMethod: 4
  m_FillAmount: 1
  m_FillClockwise: 1
  m_FillOrigin: 0
  m_UseSpriteMesh: 0
  m_PixelsPerUnitMultiplier: 1
--- !u!222 &1808691627
CanvasRenderer:
  m_ObjectHideFlags: 0
  m_CorrespondingSourceObject: {fileID: 0}
  m_PrefabInstance: {fileID: 0}
  m_PrefabAsset: {fileID: 0}
  m_GameObject: {fileID: 1808691623}
  m_CullTransparentMesh: 1
--- !u!1 &1860561879
GameObject:
  m_ObjectHideFlags: 0
  m_CorrespondingSourceObject: {fileID: 0}
  m_PrefabInstance: {fileID: 0}
  m_PrefabAsset: {fileID: 0}
  serializedVersion: 6
  m_Component:
  - component: {fileID: 1860561880}
  - component: {fileID: 1860561883}
  - component: {fileID: 1860561882}
  - component: {fileID: 1860561881}
  m_Layer: 5
  m_Name: Image Fade
  m_TagString: Untagged
  m_Icon: {fileID: 0}
  m_NavMeshLayer: 0
  m_StaticEditorFlags: 0
  m_IsActive: 1
--- !u!224 &1860561880
RectTransform:
  m_ObjectHideFlags: 0
  m_CorrespondingSourceObject: {fileID: 0}
  m_PrefabInstance: {fileID: 0}
  m_PrefabAsset: {fileID: 0}
  m_GameObject: {fileID: 1860561879}
  m_LocalRotation: {x: 0, y: 0, z: 0, w: 1}
  m_LocalPosition: {x: 0, y: 0, z: 0}
  m_LocalScale: {x: 1, y: 1, z: 1}
  m_Children:
  - {fileID: 683736326}
  m_Father: {fileID: 621921621}
  m_RootOrder: 6
  m_LocalEulerAnglesHint: {x: 0, y: 0, z: 0}
  m_AnchorMin: {x: 0.5, y: 0.5}
  m_AnchorMax: {x: 0.5, y: 0.5}
  m_AnchoredPosition: {x: 0, y: -300}
  m_SizeDelta: {x: 100, y: 100}
  m_Pivot: {x: 0.5, y: 0.5}
--- !u!114 &1860561881
MonoBehaviour:
  m_ObjectHideFlags: 0
  m_CorrespondingSourceObject: {fileID: 0}
  m_PrefabInstance: {fileID: 0}
  m_PrefabAsset: {fileID: 0}
  m_GameObject: {fileID: 1860561879}
  m_Enabled: 1
  m_EditorHideFlags: 0
  m_Script: {fileID: -1853575441, guid: e12027aef8e7440199d1da19d3226929, type: 3}
  m_Name: 
  m_EditorClassIdentifier: 
  m_CameraLeftEdge: 0
  m_CameraRightEdge: 0
  m_CameraTopEdge: 0
  m_CameraBottomEdge: 0
  m_CanvasWorldTopLeft: {x: 0, y: 0, z: 0}
  m_CanvasWorldTopCenter: {x: 0, y: 0, z: 0}
  m_CanvasWorldTopRight: {x: 0, y: 0, z: 0}
  m_CanvasWorldMiddleLeft: {x: 0, y: 0, z: 0}
  m_CanvasWorldMiddleCenter: {x: 0, y: 0, z: 0}
  m_CanvasWorldMiddleRight: {x: 0, y: 0, z: 0}
  m_CanvasWorldBottomLeft: {x: 0, y: 0, z: 0}
  m_CanvasWorldBottomCenter: {x: 0, y: 0, z: 0}
  m_CanvasWorldBottomRight: {x: 0, y: 0, z: 0}
  m_TotalBounds:
    m_Center: {x: 0, y: 0, z: 0}
    m_Extent: {x: 0, y: 0, z: 0}
  m_MoveOriginal: {x: 0, y: 0, z: 0}
  m_RotationOriginal: {x: 0, y: 0, z: 0, w: 0}
  m_ScaleOriginal: {x: 0, y: 0, z: 0}
  m_FadeOriginal: 0
  m_FadeOriginalTextOutline: 0
  m_FadeOriginalTextShadow: 0
  m_MoveIn:
    Enable: 0
    Began: 0
    Animating: 0
    Done: 0
    MoveFrom: 2
    BeginPos: {x: 0, y: 0, z: 0}
    EndPos: {x: 0, y: 0, z: 0}
    Position: {x: 0, y: 0, z: 0}
    EaseType: 27
    Time: 1
    Delay: 0
    Sounds:
      m_Begin: {fileID: 0}
      m_AfterDelay: {fileID: 0}
      m_End: {fileID: 0}
  m_RotationIn:
    Enable: 0
    Began: 0
    Animating: 0
    Done: 0
    BeginRotation: {x: 0, y: 0, z: 0}
    EndRotation: {x: 0, y: 0, z: 0}
    Rotation: {x: 0, y: 0, z: 0}
    EaseType: 27
    Time: 1
    Delay: 0
    Sounds:
      m_Begin: {fileID: 0}
      m_AfterDelay: {fileID: 0}
      m_End: {fileID: 0}
  m_ScaleIn:
    Enable: 0
    Began: 0
    Animating: 0
    Done: 0
    ScaleBegin: {x: 0, y: 0, z: 0}
    EaseType: 27
    Time: 1
    Delay: 0
    Sounds:
      m_Begin: {fileID: 0}
      m_AfterDelay: {fileID: 0}
      m_End: {fileID: 0}
  m_FadeIn:
    Enable: 1
    Began: 0
    Animating: 0
    Done: 0
    Fade: 0
    EaseType: 21
    Time: 5
    Delay: 0
    FadeChildren: 1
    Sounds:
      m_Begin: {fileID: 0}
      m_AfterDelay: {fileID: 0}
      m_End: {fileID: 0}
  m_ScaleLoop:
    Enable: 0
    Began: 0
    Animating: 0
    IsOverriding: 0
    IsOverridingDelayTimeCount: 0
    Done: 0
    m_ScaleLast: {x: 0, y: 0, z: 0}
    Min: {x: 1, y: 1, z: 1}
    Max: {x: 1.05, y: 1.05, z: 1.05}
    EaseType: 21
    Time: 1
    Delay: 0
    Sound:
      m_AudioClip: {fileID: 0}
      m_Loop: 0
      m_AudioSource: {fileID: 0}
  m_FadeLoop:
    Enable: 0
    Began: 0
    Animating: 0
    IsOverriding: 0
    IsOverridingDelayTimeCount: 0
    Done: 0
    m_FadeLast: 0
    Min: 0
    Max: 1
    EaseType: 21
    Time: 1
    Delay: 0
    FadeChildren: 1
    Sound:
      m_AudioClip: {fileID: 0}
      m_Loop: 0
      m_AudioSource: {fileID: 0}
  m_MoveOut:
    Enable: 0
    Began: 0
    Animating: 0
    Done: 0
    MoveTo: 2
    BeginPos: {x: 0, y: 0, z: 0}
    EndPos: {x: 0, y: 0, z: 0}
    Position: {x: 0, y: 0, z: 0}
    EaseType: 26
    Time: 1
    Delay: 0
    Sounds:
      m_Begin: {fileID: 0}
      m_AfterDelay: {fileID: 0}
      m_End: {fileID: 0}
  m_RotationOut:
    Enable: 0
    Began: 0
    Animating: 0
    Done: 0
    BeginRotation: {x: 0, y: 0, z: 0}
    EndRotation: {x: 0, y: 0, z: 0}
    Rotation: {x: 0, y: 0, z: 0}
    EaseType: 26
    Time: 1
    Delay: 0
    Sounds:
      m_Begin: {fileID: 0}
      m_AfterDelay: {fileID: 0}
      m_End: {fileID: 0}
  m_ScaleOut:
    Enable: 0
    Began: 0
    Animating: 0
    Done: 0
    ScaleBegin: {x: 1, y: 1, z: 1}
    ScaleEnd: {x: 0, y: 0, z: 0}
    EaseType: 26
    Time: 1
    Delay: 0
    Sounds:
      m_Begin: {fileID: 0}
      m_AfterDelay: {fileID: 0}
      m_End: {fileID: 0}
  m_FadeOut:
    Enable: 1
    Began: 0
    Animating: 0
    Done: 0
    Fade: 0
    EaseType: 21
    Time: 1
    Delay: 0
    FadeChildren: 1
    Sounds:
      m_Begin: {fileID: 0}
      m_AfterDelay: {fileID: 0}
      m_End: {fileID: 0}
  m_MoveVariable: 0
  m_RotationVariable: 0
  m_ScaleVariable: 0
  m_FadeVariable: 0
--- !u!114 &1860561882
MonoBehaviour:
  m_ObjectHideFlags: 0
  m_CorrespondingSourceObject: {fileID: 0}
  m_PrefabInstance: {fileID: 0}
  m_PrefabAsset: {fileID: 0}
  m_GameObject: {fileID: 1860561879}
  m_Enabled: 1
  m_EditorHideFlags: 0
  m_Script: {fileID: 11500000, guid: fe87c0e1cc204ed48ad3b37840f39efc, type: 3}
  m_Name: 
  m_EditorClassIdentifier: 
  m_Material: {fileID: 0}
  m_Color: {r: 1, g: 0, b: 0, a: 1}
  m_RaycastTarget: 1
  m_RaycastPadding: {x: 0, y: 0, z: 0, w: 0}
  m_Maskable: 1
  m_OnCullStateChanged:
    m_PersistentCalls:
      m_Calls: []
  m_Sprite: {fileID: 0}
  m_Type: 0
  m_PreserveAspect: 0
  m_FillCenter: 1
  m_FillMethod: 4
  m_FillAmount: 1
  m_FillClockwise: 1
  m_FillOrigin: 0
  m_UseSpriteMesh: 0
  m_PixelsPerUnitMultiplier: 1
--- !u!222 &1860561883
CanvasRenderer:
  m_ObjectHideFlags: 0
  m_CorrespondingSourceObject: {fileID: 0}
  m_PrefabInstance: {fileID: 0}
  m_PrefabAsset: {fileID: 0}
  m_GameObject: {fileID: 1860561879}
  m_CullTransparentMesh: 1
--- !u!1 &2043423265
GameObject:
  m_ObjectHideFlags: 0
  m_CorrespondingSourceObject: {fileID: 0}
  m_PrefabInstance: {fileID: 0}
  m_PrefabAsset: {fileID: 0}
  serializedVersion: 6
  m_Component:
  - component: {fileID: 2043423266}
  - component: {fileID: 2043423269}
  - component: {fileID: 2043423268}
  - component: {fileID: 2043423267}
  m_Layer: 5
  m_Name: Image Scale Loop
  m_TagString: Untagged
  m_Icon: {fileID: 0}
  m_NavMeshLayer: 0
  m_StaticEditorFlags: 0
  m_IsActive: 1
--- !u!224 &2043423266
RectTransform:
  m_ObjectHideFlags: 0
  m_CorrespondingSourceObject: {fileID: 0}
  m_PrefabInstance: {fileID: 0}
  m_PrefabAsset: {fileID: 0}
  m_GameObject: {fileID: 2043423265}
  m_LocalRotation: {x: 0, y: 0, z: 0, w: 1}
  m_LocalPosition: {x: 0, y: 0, z: 0}
  m_LocalScale: {x: 1, y: 1, z: 1}
  m_Children:
  - {fileID: 299857986}
  m_Father: {fileID: 621921621}
  m_RootOrder: 7
  m_LocalEulerAnglesHint: {x: 0, y: 0, z: 0}
  m_AnchorMin: {x: 0.5, y: 0.5}
  m_AnchorMax: {x: 0.5, y: 0.5}
  m_AnchoredPosition: {x: 300, y: -300}
  m_SizeDelta: {x: 100, y: 100}
  m_Pivot: {x: 0.5, y: 0.5}
--- !u!114 &2043423267
MonoBehaviour:
  m_ObjectHideFlags: 0
  m_CorrespondingSourceObject: {fileID: 0}
  m_PrefabInstance: {fileID: 0}
  m_PrefabAsset: {fileID: 0}
  m_GameObject: {fileID: 2043423265}
  m_Enabled: 1
  m_EditorHideFlags: 0
  m_Script: {fileID: -1853575441, guid: e12027aef8e7440199d1da19d3226929, type: 3}
  m_Name: 
  m_EditorClassIdentifier: 
  m_CameraLeftEdge: 0
  m_CameraRightEdge: 0
  m_CameraTopEdge: 0
  m_CameraBottomEdge: 0
  m_CanvasWorldTopLeft: {x: 0, y: 0, z: 0}
  m_CanvasWorldTopCenter: {x: 0, y: 0, z: 0}
  m_CanvasWorldTopRight: {x: 0, y: 0, z: 0}
  m_CanvasWorldMiddleLeft: {x: 0, y: 0, z: 0}
  m_CanvasWorldMiddleCenter: {x: 0, y: 0, z: 0}
  m_CanvasWorldMiddleRight: {x: 0, y: 0, z: 0}
  m_CanvasWorldBottomLeft: {x: 0, y: 0, z: 0}
  m_CanvasWorldBottomCenter: {x: 0, y: 0, z: 0}
  m_CanvasWorldBottomRight: {x: 0, y: 0, z: 0}
  m_TotalBounds:
    m_Center: {x: 0, y: 0, z: 0}
    m_Extent: {x: 0, y: 0, z: 0}
  m_MoveOriginal: {x: 0, y: 0, z: 0}
  m_RotationOriginal: {x: 0, y: 0, z: 0, w: 0}
  m_ScaleOriginal: {x: 0, y: 0, z: 0}
  m_FadeOriginal: 0
  m_FadeOriginalTextOutline: 0
  m_FadeOriginalTextShadow: 0
  m_MoveIn:
    Enable: 0
    Began: 0
    Animating: 0
    Done: 0
    MoveFrom: 2
    BeginPos: {x: 0, y: 0, z: 0}
    EndPos: {x: 0, y: 0, z: 0}
    Position: {x: 0, y: 0, z: 0}
    EaseType: 27
    Time: 1
    Delay: 0
    Sounds:
      m_Begin: {fileID: 0}
      m_AfterDelay: {fileID: 0}
      m_End: {fileID: 0}
  m_RotationIn:
    Enable: 0
    Began: 0
    Animating: 0
    Done: 0
    BeginRotation: {x: 0, y: 0, z: 0}
    EndRotation: {x: 0, y: 0, z: 0}
    Rotation: {x: 0, y: 0, z: 0}
    EaseType: 27
    Time: 1
    Delay: 0
    Sounds:
      m_Begin: {fileID: 0}
      m_AfterDelay: {fileID: 0}
      m_End: {fileID: 0}
  m_ScaleIn:
    Enable: 1
    Began: 0
    Animating: 0
    Done: 0
    ScaleBegin: {x: 0, y: 0, z: 0}
    EaseType: 27
    Time: 1
    Delay: 0
    Sounds:
      m_Begin: {fileID: 0}
      m_AfterDelay: {fileID: 0}
      m_End: {fileID: 0}
  m_FadeIn:
    Enable: 0
    Began: 0
    Animating: 0
    Done: 0
    Fade: 0
    EaseType: 21
    Time: 5
    Delay: 0
    FadeChildren: 1
    Sounds:
      m_Begin: {fileID: 0}
      m_AfterDelay: {fileID: 0}
      m_End: {fileID: 0}
  m_ScaleLoop:
    Enable: 1
    Began: 0
    Animating: 0
    IsOverriding: 0
    IsOverridingDelayTimeCount: 0
    Done: 0
    m_ScaleLast: {x: 0, y: 0, z: 0}
    Min: {x: 1, y: 1, z: 1}
    Max: {x: 1.1, y: 1.1, z: 1.1}
    EaseType: 21
    Time: 2
    Delay: 0
    Sound:
      m_AudioClip: {fileID: 0}
      m_Loop: 0
      m_AudioSource: {fileID: 0}
  m_FadeLoop:
    Enable: 0
    Began: 0
    Animating: 0
    IsOverriding: 0
    IsOverridingDelayTimeCount: 0
    Done: 0
    m_FadeLast: 0
    Min: 0
    Max: 1
    EaseType: 21
    Time: 1
    Delay: 0
    FadeChildren: 1
    Sound:
      m_AudioClip: {fileID: 0}
      m_Loop: 0
      m_AudioSource: {fileID: 0}
  m_MoveOut:
    Enable: 0
    Began: 0
    Animating: 0
    Done: 0
    MoveTo: 2
    BeginPos: {x: 0, y: 0, z: 0}
    EndPos: {x: 0, y: 0, z: 0}
    Position: {x: 0, y: 0, z: 0}
    EaseType: 26
    Time: 1
    Delay: 0
    Sounds:
      m_Begin: {fileID: 0}
      m_AfterDelay: {fileID: 0}
      m_End: {fileID: 0}
  m_RotationOut:
    Enable: 0
    Began: 0
    Animating: 0
    Done: 0
    BeginRotation: {x: 0, y: 0, z: 0}
    EndRotation: {x: 0, y: 0, z: 0}
    Rotation: {x: 0, y: 0, z: 0}
    EaseType: 26
    Time: 1
    Delay: 0
    Sounds:
      m_Begin: {fileID: 0}
      m_AfterDelay: {fileID: 0}
      m_End: {fileID: 0}
  m_ScaleOut:
    Enable: 1
    Began: 0
    Animating: 0
    Done: 0
    ScaleBegin: {x: 1, y: 1, z: 1}
    ScaleEnd: {x: 0, y: 0, z: 0}
    EaseType: 26
    Time: 1
    Delay: 0
    Sounds:
      m_Begin: {fileID: 0}
      m_AfterDelay: {fileID: 0}
      m_End: {fileID: 0}
  m_FadeOut:
    Enable: 0
    Began: 0
    Animating: 0
    Done: 0
    Fade: 0
    EaseType: 21
    Time: 1
    Delay: 0
    FadeChildren: 1
    Sounds:
      m_Begin: {fileID: 0}
      m_AfterDelay: {fileID: 0}
      m_End: {fileID: 0}
  m_MoveVariable: 0
  m_RotationVariable: 0
  m_ScaleVariable: 0
  m_FadeVariable: 0
--- !u!114 &2043423268
MonoBehaviour:
  m_ObjectHideFlags: 0
  m_CorrespondingSourceObject: {fileID: 0}
  m_PrefabInstance: {fileID: 0}
  m_PrefabAsset: {fileID: 0}
  m_GameObject: {fileID: 2043423265}
  m_Enabled: 1
  m_EditorHideFlags: 0
  m_Script: {fileID: 11500000, guid: fe87c0e1cc204ed48ad3b37840f39efc, type: 3}
  m_Name: 
  m_EditorClassIdentifier: 
  m_Material: {fileID: 0}
  m_Color: {r: 1, g: 0, b: 0, a: 1}
  m_RaycastTarget: 1
  m_RaycastPadding: {x: 0, y: 0, z: 0, w: 0}
  m_Maskable: 1
  m_OnCullStateChanged:
    m_PersistentCalls:
      m_Calls: []
  m_Sprite: {fileID: 0}
  m_Type: 0
  m_PreserveAspect: 0
  m_FillCenter: 1
  m_FillMethod: 4
  m_FillAmount: 1
  m_FillClockwise: 1
  m_FillOrigin: 0
  m_UseSpriteMesh: 0
  m_PixelsPerUnitMultiplier: 1
--- !u!222 &2043423269
CanvasRenderer:
  m_ObjectHideFlags: 0
  m_CorrespondingSourceObject: {fileID: 0}
  m_PrefabInstance: {fileID: 0}
  m_PrefabAsset: {fileID: 0}
  m_GameObject: {fileID: 2043423265}
  m_CullTransparentMesh: 1
